wait
[[0.         0.09985681 0.09962058 0.09932225]
 [0.09981759 0.         0.09972872 0.09951542]
 [0.09977232 0.09987221 0.         0.09939516]
 [1.0968999  0.09984182 1.09538949 0.        ]]
transplant
[[0.         0.00044392 0.00075055 0.0005637 ]
 [0.00045555 0.         0.00084104 0.00022982]
 [0.00038246 0.00027367 0.         0.00257396]
 [0.         0.00015778 0.         0.        ]]
HELLO WORLD!
  Iteration		V-variation
HELLO WORLD!
    1		  0.6644438537807752
HELLO WORLD!
    2		  0.1903960618716296
HELLO WORLD!
    3		  0.11412165015288495
HELLO WORLD!
    4		  0.0684558156452107
HELLO WORLD!
    5		  0.04106305055981807
HELLO WORLD!
    6		  0.02463628463570411
HELLO WORLD!
    7		  0.014780831286964724
HELLO WORLD!
    8		  0.008868359659161995
Iterating stopped, epsilon-optimal policy found.
0.1
(1, 1, 1, 0)
(0.5614342388685781, 0.5613747782884955, 0.5618117203828835, 0.7640437358582601)
wait
[[0.         0.09969873 0.09976001 0.09951379]
 [0.09986073 0.         0.09978342 0.09956122]
 [0.09988658 0.09977859 0.         0.09964267]
 [0.09986584 0.09973809 0.09979136 0.        ]]
transplant
[[0.00000000e+00 6.45213395e-04 6.45427139e-04 1.90427335e-04]
 [1.26907239e-04 0.00000000e+00 6.71447709e-04 8.67980622e-04]
 [1.75189899e-04 5.52952274e-04 0.00000000e+00 1.10781048e-03]
 [1.62720358e-05 4.39967275e-04 4.46829500e-04 0.00000000e+00]]
HELLO WORLD!
  Iteration		V-variation
HELLO WORLD!
    1		  0.0001409167332113992
Iterating stopped, epsilon-optimal policy found.
0.1
(0, 0, 0, 0)
(0.09965751118574395, 0.09973512330409055, 0.09976928096902521, 0.09979842791895535)
wait
[[0.         1.09864487 1.0989372  0.09987502 1.09765408 1.09863491
  0.09980616]
 [0.09952349 0.         0.09977323 0.09970667 0.09949945 0.09970873
  0.09954504]
 [0.09941843 1.09611813 0.         0.099642   1.09327997 1.09608962
  0.09944473]
 [0.09956682 0.09973715 0.09979385 0.         0.09954496 0.09973521
  0.09958641]
 [0.09950876 0.09970192 0.09976622 0.0996976  0.         0.09969973
  0.09953098]
 [0.099674   0.09980218 0.09984486 0.09979932 0.09965755 0.
  0.09968874]
 [0.09943511 1.09622949 1.09704288 0.09965226 1.09347274 1.0962018
  0.        ]]
transplant
[[0.00000000e+00 0.00000000e+00 0.00000000e+00 5.93667093e-04
  0.00000000e+00 0.00000000e+00 7.31826770e-04]
 [1.28153124e-03 0.00000000e+00 6.64712132e-05 9.09399914e-04
  9.90168320e-04 3.78966043e-04 2.04806800e-03]
 [1.92972409e-03 0.00000000e+00 0.00000000e+00 8.94080705e-04
  0.00000000e+00 0.00000000e+00 2.09636428e-03]
 [1.73841274e-03 6.56453091e-04 3.36076239e-05 0.00000000e+00
  1.41072932e-03 5.67077122e-04 1.28223611e-03]
 [2.11758405e-04 5.00722876e-04 4.62450426e-04 6.47626762e-04
  0.00000000e+00 5.40073864e-05 6.10233509e-04]
 [6.46794516e-05 1.64529638e-04 5.49738194e-04 2.18935421e-04
  4.58431480e-05 0.00000000e+00 1.96008536e-04]
 [7.56211108e-05 0.00000000e+00 0.00000000e+00 2.63785451e-04
  0.00000000e+00 0.00000000e+00 0.00000000e+00]]
HELLO WORLD!
  Iteration		V-variation
HELLO WORLD!
    1		  0.6659659387867375
HELLO WORLD!
    2		  0.2651675572636643
HELLO WORLD!
    3		  0.1192358071124156
HELLO WORLD!
    4		  0.05363016659364622
HELLO WORLD!
    5		  0.02413155910987541
HELLO WORLD!
    6		  0.010858617800787784
Iterating stopped, epsilon-optimal policy found.
0.1
(0, 1, 0, 1, 1, 1, 0)
(0.7655920409169659, 0.572515570568545, 0.5973321459599955, 0.5725175842195231, 0.5720535328280207, 0.5718727779435344, 0.7636723801661617)
wait
[[0.         1.09831262 1.09923883 0.09981335 1.09689519 1.09804893
  0.09973785]
 [0.09949211 0.         0.09986155 0.09962655 0.09943527 0.09964513
  0.0994755 ]
 [0.09937799 0.09962413 0.         0.09954265 1.09239231 1.09521932
  0.09935765]
 [0.0994924  0.09969326 0.09986163 0.         0.0994356  0.09964533
  0.0994758 ]
 [0.09944367 0.09966382 0.09984835 0.09959094 0.         0.09961128
  0.09942548]
 [0.09960087 0.09975881 0.0998912  0.09970653 0.09955621 0.
  0.09958782]
 [0.09937535 1.09584785 1.098127   0.09954071 1.09235999 1.09519901
  0.        ]]
transplant
[[0.00000000e+00 0.00000000e+00 0.00000000e+00 8.86635500e-04
  0.00000000e+00 0.00000000e+00 9.89727518e-04]
 [1.36593657e-03 0.00000000e+00 3.02938181e-05 1.15777745e-03
  1.11711749e-03 4.61721398e-04 2.36112927e-03]
 [1.67283568e-03 2.85129087e-04 0.00000000e+00 2.62173151e-04
  0.00000000e+00 0.00000000e+00 6.40744453e-04]
 [2.03708034e-03 7.66049944e-04 1.67818193e-05 0.00000000e+00
  1.74979608e-03 7.59583908e-04 1.62516448e-03]
 [2.39819231e-04 5.64727463e-04 2.34246497e-04 8.76066307e-04
  0.00000000e+00 6.99157269e-05 7.47503890e-04]
 [7.91878134e-05 2.00601553e-04 3.14479502e-04 3.20167242e-04
  5.94093692e-05 0.00000000e+00 2.59561971e-04]
 [8.36213619e-05 0.00000000e+00 0.00000000e+00 3.48412610e-04
  0.00000000e+00 0.00000000e+00 0.00000000e+00]]
HELLO WORLD!
  Iteration		V-variation
HELLO WORLD!
    1		  0.66575177689529
HELLO WORLD!
    2		  0.24033920383047153
HELLO WORLD!
    3		  0.10803811603244423
HELLO WORLD!
    4		  0.06476925096471858
HELLO WORLD!
    5		  0.03175066553691919
HELLO WORLD!
    6		  0.019049192902419798
HELLO WORLD!
    7		  0.011269520828008806
HELLO WORLD!
    8		  0.006761685352361435
Iterating stopped, epsilon-optimal policy found.
0.1
(0, 1, 1, 1, 1, 1, 0)
(0.7653411290224883, 0.5651909671549822, 0.5646654750077714, 0.5652577035643004, 0.5646457927480636, 0.5644285644519366, 0.7634083182981993)
wait
[[0.         1.09893096 0.09962709 1.09558292 1.09895253 0.09998171
  1.09763221 1.09811503 0.09974668 1.09827988 1.09896805 1.09674349
  1.09782789]
 [1.09603627 0.         0.09924403 1.09104566 1.09787656 0.09996292
  1.0952     1.09617879 0.09948646 0.099683   1.09790802 1.09339838
  1.09559668]
 [1.09709474 0.0998556  0.         0.09940335 0.09985851 0.09997283
  0.09968016 1.09719919 0.09962359 1.09744412 0.09986061 1.09516125
  1.09677253]
 [1.09980651 0.09999038 0.0999631  0.         0.09999058 0.09999819
  0.0999787  1.09981346 0.09997493 1.09982978 0.09999072 1.09967773
  1.09978505]
 [0.09989388 0.09994198 0.09977736 0.09976026 0.         0.09998908
  0.09987148 0.09989769 0.09984875 0.09990664 0.09994399 0.09982325
  0.09988211]
 [0.09975297 0.09986494 0.09948175 0.09944195 0.09986766 0.
  0.09970086 0.09976186 0.09964795 0.09978268 0.09986962 0.09958858
  0.09972558]
 [1.0989081  1.09940301 0.09979175 1.09753333 1.09941505 0.09998979
  0.         1.09894736 0.09985853 1.09903942 1.09942372 1.09818144
  1.09878701]
 [1.09716494 1.09844994 0.09945929 1.0935954  1.09848121 0.09997348
  1.0965668  0.         0.09963269 1.09750589 1.09850371 1.09527818
  1.09685052]
 [1.09762234 1.09870002 0.09954653 1.0946287  1.09872625 0.09997776
  1.0971207  1.09770783 0.         1.09790828 1.09874512 1.09603999
  1.09735865]
 [1.09579533 1.09770111 0.09919807 1.09050136 1.09774749 0.09996067
  1.09490823 1.09594651 0.09945524 0.         1.09778086 1.09299709
  1.09532902]
 [1.09495944 1.09724408 0.09903865 1.088613   1.09729968 0.09995285
  1.09389597 1.09514066 0.09934694 0.09959687 0.         1.09160489
  1.09440041]
 [0.09956146 0.09976023 0.09907997 0.09900932 0.09976507 0.09995488
  0.09946894 0.09957723 0.09937502 0.0996142  0.09976855 0.
  0.09951283]
 [0.09966531 0.09981701 0.09929783 0.09924391 0.0998207  0.09996556
  0.09959469 0.09967734 0.09952301 0.09970556 0.09982336 0.09944257
  0.        ]]
transplant
[[0.00000000e+00 0.00000000e+00 9.31314352e-04 0.00000000e+00
  0.00000000e+00 4.23339518e-05 0.00000000e+00 0.00000000e+00
  5.54306925e-05 0.00000000e+00 0.00000000e+00 0.00000000e+00
  0.00000000e+00]
 [0.00000000e+00 0.00000000e+00 2.85410502e-03 0.00000000e+00
  0.00000000e+00 2.12529866e-05 0.00000000e+00 0.00000000e+00
  5.12260220e-04 1.34903503e-03 0.00000000e+00 0.00000000e+00
  0.00000000e+00]
 [0.00000000e+00 1.93313003e-05 0.00000000e+00 3.75733421e-04
  1.41137954e-04 1.22331119e-04 5.83466830e-04 0.00000000e+00
  3.07244900e-05 0.00000000e+00 6.96974135e-04 0.00000000e+00
  0.00000000e+00]
 [0.00000000e+00 1.75447565e-05 1.22450898e-04 0.00000000e+00
  3.33914107e-05 8.58342988e-07 4.56205351e-05 0.00000000e+00
  2.98831158e-05 0.00000000e+00 5.32188825e-06 0.00000000e+00
  0.00000000e+00]
 [5.53479233e-05 1.05849904e-04 5.37175778e-05 1.03346971e-04
  0.00000000e+00 2.69989319e-07 1.72042429e-05 2.72111929e-05
  4.06761459e-04 4.86917609e-05 1.69063632e-06 6.26309805e-04
  5.60024106e-04]
 [9.91344997e-04 3.63234860e-04 1.19961578e-03 1.97741149e-03
  3.30495891e-04 0.00000000e+00 4.24338587e-04 5.94741050e-04
  6.42233065e-04 8.72125469e-04 4.63761187e-05 5.35297291e-04
  2.28244239e-04]
 [0.00000000e+00 0.00000000e+00 2.07730057e-04 0.00000000e+00
  0.00000000e+00 1.12211432e-06 0.00000000e+00 0.00000000e+00
  5.34093676e-04 0.00000000e+00 0.00000000e+00 0.00000000e+00
  0.00000000e+00]
 [0.00000000e+00 0.00000000e+00 3.09957756e-04 0.00000000e+00
  0.00000000e+00 1.60693765e-06 0.00000000e+00 0.00000000e+00
  1.74480427e-03 0.00000000e+00 0.00000000e+00 0.00000000e+00
  0.00000000e+00]
 [0.00000000e+00 0.00000000e+00 1.21957852e-03 0.00000000e+00
  0.00000000e+00 7.91090912e-06 0.00000000e+00 0.00000000e+00
  0.00000000e+00 0.00000000e+00 0.00000000e+00 0.00000000e+00
  0.00000000e+00]
 [0.00000000e+00 0.00000000e+00 1.46291709e-03 0.00000000e+00
  0.00000000e+00 1.21929136e-04 0.00000000e+00 0.00000000e+00
  8.04826980e-05 0.00000000e+00 0.00000000e+00 0.00000000e+00
  0.00000000e+00]
 [0.00000000e+00 0.00000000e+00 2.31945304e-04 0.00000000e+00
  0.00000000e+00 1.16577771e-06 0.00000000e+00 0.00000000e+00
  1.75634148e-03 2.10244500e-04 0.00000000e+00 0.00000000e+00
  0.00000000e+00]
 [1.01510114e-03 1.65772234e-04 3.69217855e-03 2.66435783e-03
  8.86960732e-04 5.87058940e-05 2.39064522e-03 1.59612259e-03
  2.69413862e-04 8.93024689e-04 3.57510959e-04 0.00000000e+00
  8.76236242e-05]
 [3.98963284e-04 5.90983135e-05 1.62534625e-03 1.07252807e-03
  3.83999268e-04 8.60013479e-05 1.43617829e-03 6.91022593e-04
  9.46366030e-05 3.50983807e-04 5.10591356e-04 7.46231852e-05
  0.00000000e+00]]
HELLO WORLD!
  Iteration		V-variation
HELLO WORLD!
    1		  0.8316362044342435
HELLO WORLD!
    2		  0.44011435697547596
HELLO WORLD!
    3		  0.12413823208802355
HELLO WORLD!
    4		  0.04074647221547001
HELLO WORLD!
    5		  0.015145652293307998
HELLO WORLD!
    6		  0.00564696443289181
Iterating stopped, epsilon-optimal policy found.
0.1
(0, 0, 1, 1, 1, 1, 0, 0, 0, 0, 0, 1, 1)
(0.8483657017839047, 0.7634680642904319, 0.6989282549391561, 0.6987953867104936, 0.6989318441287095, 0.6994123908885956, 0.8491065412644137, 0.8476218370090345, 0.9311735130605319, 0.8464434147223233, 0.7625911211531833, 0.6998675829527592, 0.6993021980579036)
wait
[[0.         1.09855481 1.0990871  0.09967761 1.09513629 0.09996673
  1.09686805 1.09777335 0.09969336 1.09755504 1.09711834]
 [1.09544902 0.         1.09829403 0.09939753 1.09091104 0.09993782
  1.09414724 1.09583899 0.09942697 0.09958464 1.09461495]
 [1.09622889 1.09776212 0.         0.09950077 1.09246854 0.09994848
  1.09515018 1.09655203 0.09952517 1.09621398 1.09553774]
 [1.09478157 1.09690324 1.09804383 0.         1.08957803 0.0999287
  1.09328886 1.09522873 0.09934293 1.09476094 1.09382517]
 [1.09864786 1.0991976  1.09949314 0.099821   0.         0.09998153
  1.09826108 1.09876372 0.09982975 1.09864251 1.09840004]
 [0.09970124 0.09982271 0.09988801 0.09956494 0.09940333 0.
  0.09961578 0.09972684 0.0995862  0.09970006 0.09964648]
 [1.09863083 1.0991875  1.09948676 0.09981875 1.09726556 0.09998129
  0.         1.09874815 0.0998276  1.09862542 1.0983799 ]
 [1.09657447 1.0979672  1.09871592 0.09954652 1.09315873 0.0999532
  1.09559462 0.         0.09956868 1.09656093 1.09594667]
 [1.09709624 1.09827683 1.0989115  0.0996156  1.09420077 0.09996033
  1.09626563 1.09734506 0.         1.09708476 1.09656406]
 [1.09524878 1.09718049 1.09821897 0.09937102 1.09051112 0.09993508
  1.09388971 1.09565591 0.09940176 0.         1.094378  ]
 [0.09959597 0.09976024 0.09984855 0.09941166 0.0991931  0.09993928
  0.0994804  0.09963059 0.0994404  0.09959438 0.        ]]
transplant
[[0.00000000e+00 0.00000000e+00 0.00000000e+00 2.03021959e-04
  0.00000000e+00 7.70198764e-05 0.00000000e+00 0.00000000e+00
  6.70969091e-05 0.00000000e+00 0.00000000e+00]
 [0.00000000e+00 0.00000000e+00 0.00000000e+00 1.50459827e-03
  0.00000000e+00 3.56436849e-05 0.00000000e+00 0.00000000e+00
  5.71599002e-04 1.76759798e-03 0.00000000e+00]
 [0.00000000e+00 0.00000000e+00 0.00000000e+00 2.37142836e-03
  0.00000000e+00 1.12741045e-05 0.00000000e+00 0.00000000e+00
  1.09912140e-03 0.00000000e+00 0.00000000e+00]
 [0.00000000e+00 0.00000000e+00 0.00000000e+00 0.00000000e+00
  0.00000000e+00 3.03416067e-04 0.00000000e+00 0.00000000e+00
  5.92237300e-05 0.00000000e+00 0.00000000e+00]
 [0.00000000e+00 0.00000000e+00 0.00000000e+00 2.76491373e-04
  0.00000000e+00 6.80629541e-07 0.00000000e+00 0.00000000e+00
  6.03280452e-04 0.00000000e+00 0.00000000e+00]
 [1.19896477e-03 4.76814353e-04 5.31988782e-04 1.74593125e-03
  7.11247173e-04 0.00000000e+00 5.45020428e-04 6.82190655e-04
  7.54873225e-04 1.20370419e-03 2.94028741e-04]
 [0.00000000e+00 0.00000000e+00 0.00000000e+00 6.42259705e-04
  0.00000000e+00 2.05529879e-06 0.00000000e+00 0.00000000e+00
  6.50868874e-04 0.00000000e+00 0.00000000e+00]
 [0.00000000e+00 0.00000000e+00 0.00000000e+00 1.04968689e-03
  0.00000000e+00 2.83612793e-06 0.00000000e+00 0.00000000e+00
  2.04885729e-03 0.00000000e+00 0.00000000e+00]
 [0.00000000e+00 0.00000000e+00 0.00000000e+00 1.36211417e-03
  0.00000000e+00 1.41123497e-05 0.00000000e+00 0.00000000e+00
  0.00000000e+00 0.00000000e+00 0.00000000e+00]
 [0.00000000e+00 0.00000000e+00 0.00000000e+00 2.71133868e-04
  0.00000000e+00 2.01253289e-04 0.00000000e+00 0.00000000e+00
  8.83845230e-05 0.00000000e+00 0.00000000e+00]
 [4.81612798e-04 7.74319814e-05 1.14889269e-04 3.37263743e-04
  9.78646004e-05 1.51646329e-04 1.84116241e-03 7.91140441e-04
  1.11025820e-04 4.83516578e-04 0.00000000e+00]]
HELLO WORLD!
  Iteration		V-variation
HELLO WORLD!
    1		  0.7979426210427282
HELLO WORLD!
    2		  0.5650175902100054
HELLO WORLD!
    3		  0.05085158311890048
HELLO WORLD!
    4		  0.009150994534102175
Iterating stopped, epsilon-optimal policy found.
0.1
(0, 1, 0, 0, 0, 1, 0, 0, 0, 0, 1)
(0.7981430665448872, 0.7213468086929976, 0.796888790369884, 0.8955681986115058, 0.7991038230423698, 0.7214751289300457, 0.7989951750143268, 0.7973586935075686, 0.89753207734083, 0.7963790847404966, 0.7211394159964148)
wait
[[0.         0.09937752 1.09071181 0.09992151 1.09391984 1.09608524
  1.09714675 1.09499392 0.09936381 1.09449994 1.0948719  0.09939458
  1.09295505 1.09571571 0.09944821 1.09771527 0.09921949 0.09966835
  1.09624099 1.09162347 1.09857693 1.09179811 0.09952242 1.09702974
  0.09969973 1.09413248]
 [1.09761693 0.         1.08825914 0.09990078 1.09231429 1.0950515
  1.09639331 1.09367199 0.09919581 1.09304757 1.09351776 0.09923471
  1.09109473 1.09458439 0.09930251 1.09711196 0.09901338 0.09958078
  1.09524837 1.08941154 1.09820115 1.08963229 0.09939631 1.0962454
  0.09962044 1.09258309]
 [1.09922851 0.09974527 0.         0.09996788 1.09751186 1.09839799
  1.09883239 1.0979514  0.09973966 1.09774925 1.09790147 0.09975225
  1.09711705 1.09824678 0.0997742  1.09906504 0.0996806  0.09986428
  1.09846173 1.09657214 1.09941765 1.09664361 0.09980456 1.0987845
  0.09987712 1.09759888]
 [0.09985119 0.09945952 0.09926685 0.         0.09952007 0.09969099
  0.09977478 0.09960485 0.09944761 0.09956586 0.09959522 0.09947433
  0.09944392 0.09966183 0.0995209  0.09981966 0.0993223  0.09971204
  0.09970329 0.09933881 0.09988767 0.0993526  0.09958533 0.09976555
  0.09973929 0.09953686]
 [1.09929888 0.0997685  1.09654576 0.09997081 0.         1.09854412
  1.09893889 1.09813826 0.0997634  1.09795455 1.09809288 0.09977485
  1.09738001 1.09840669 0.09979479 1.09915032 0.09970973 0.09987666
  1.09860204 1.09688481 1.09947077 1.09694975 0.09982239 1.09889537
  0.09988833 1.0978179 ]
 [1.09829508 0.09943706 1.09160024 0.09992902 1.09450142 0.
  1.09741967 1.09547275 0.09942466 1.09502603 1.09536241 0.09945249
  1.09362891 1.09612551 0.09950099 1.09793381 0.09929414 0.09970008
  1.09660054 1.0924247  1.09871305 1.09258264 0.0995681  1.09731385
  0.09972846 1.09469372]
 [1.0978289  0.09928313 1.08930349 0.09990961 1.09299794 1.09549167
  0.         0.0994759  0.09926734 1.09366599 1.09409436 0.09930278
  1.09188686 1.09506611 0.09936455 1.09736885 0.09910114 0.09961807
  1.09567103 0.09912303 1.09836115 1.0905545  0.09945001 1.09657937
  0.09965421 1.09324282]
 [1.09776507 0.09926206 1.08898903 0.09990695 1.09279209 1.09535913
  1.09661753 0.         0.09924581 1.09347979 1.09392074 0.09928229
  1.09164835 1.09492106 0.09934587 1.0972915  0.09907472 0.09960684
  1.09554376 1.09006979 1.09831297 1.09027682 0.09943384 1.09647881
  0.09964404 1.09304417]
 [0.09995155 0.09982403 1.09737426 0.09997781 0.09984374 1.09889331
  0.09992667 1.0985848  0.         1.09844515 0.09986821 0.09982885
  1.09800842 0.0998899  0.09984401 1.09935412 0.09977935 0.09990625
  0.09990339 1.09763199 1.0995977  1.09768136 0.09986499 0.09992367
  0.09991512 0.09984921]
 [1.09948404 0.09982964 1.097458   0.09997852 1.09833598 1.09892861
  1.09921912 0.09987545 0.09982589 0.         1.09859654 0.09983431
  1.09807193 1.09882747 0.09984899 1.09937471 0.09978639 0.09990924
  1.09897123 0.09979159 1.09961053 1.0977553  0.0998693  1.0991871
  0.09991782 1.09839417]
 [0.0999174  0.0997     0.09959306 0.09996217 0.09973361 0.09982848
  0.09987499 0.09978067 0.09969339 0.09975903 0.         0.09970822
  0.09969134 0.09981229 0.09973407 0.0998999  0.09962384 0.09984017
  0.09983531 0.099633   0.09993765 0.09964065 0.09976984 0.09986986
  0.09985529 0.09974293]
 [0.09989742 0.09962742 1.09444073 0.09995302 0.09966917 1.0976569
  0.09984475 1.0970037  0.09961922 1.09670804 0.09972097 0.
  1.09578338 0.09976688 0.09966974 1.09863252 0.09953284 0.0998015
  0.09979547 1.09498639 1.09914825 1.09509092 0.09971415 0.09983838
  0.09982028 0.09968074]
 [1.09893473 0.09964826 1.09475164 0.09995565 1.09656436 1.09778794
  1.09838775 1.09717127 0.09964051 1.09689215 1.09710233 0.0996579
  0.         1.09757913 0.09968821 1.098709   0.09955896 0.0998126
  1.09787594 1.09526678 1.09919588 1.09536546 0.09973014 1.09832163
  0.09983033 1.09668452]
 [1.0987181  0.09957674 1.09368439 0.09994663 1.09586573 1.09733811
  1.0980599  1.09659605 0.09956741 1.09626017 1.09651309 0.09958834
  1.0952097  0.         0.09962481 1.09844647 0.09946928 0.09977449
  1.09744402 1.09430428 1.09903237 1.09442303 0.09967526 1.09798034
  0.09979583 1.09601031]
 [1.09854258 0.09951878 1.09281963 0.09993932 1.09529965 1.09697364
  1.09779426 1.09612997 0.09950818 1.0957481  1.09603565 0.09953197
  1.0945538  1.09668797 0.         1.09823376 0.09939661 0.09974362
  1.09709404 1.0935244  1.09889987 1.09365941 0.0996308  1.0977038
  0.09976788 1.09546403]
 [1.09798924 0.09933608 1.09009346 0.09991629 1.09351506 1.09582462
  1.0969568  1.09466064 0.09932145 1.09413378 1.09453051 0.09935428
  1.09248604 1.09543049 0.09941148 0.         0.09916752 0.09964628
  1.09599074 1.09106582 1.09848219 1.09125208 0.09949063 1.096832
  0.09967974 1.09374186]
 [0.09996665 0.09987889 0.09983572 0.09998473 0.09989246 0.09993076
  0.09994953 0.09991146 0.09987622 0.09990272 0.0999093  0.09988221
  0.09987539 0.09992422 0.09989264 0.09995959 0.         0.09993547
  0.09993351 0.09985184 0.09997483 0.09985493 0.09990708 0.09994746
  0.09994158 0.09989622]
 [1.09877374 0.09959511 1.09395851 0.09994895 1.09604517 1.09745365
  1.09814411 1.0967438  0.09958619 1.09642249 1.09666444 0.09960621
  1.09541762 1.09721329 0.09964109 1.0985139  0.09949232 0.
  1.09755496 1.0945515  1.09907436 1.0946651  0.09968936 1.098068
  0.09980469 1.09618348]
 [0.09988664 0.09958829 1.09385674 0.09994809 0.09963441 1.09741076
  0.09982844 1.09668895 0.09957922 1.09636223 0.09969166 0.09959957
  1.09534043 0.0997424  0.09963505 1.09848887 0.09948376 0.09978065
  0.         1.09445972 1.09905877 1.09457522 0.09968413 0.0998214
  0.0998014  0.0996472 ]
 [1.09915999 0.09972264 1.09586144 0.09996503 1.09729085 1.09825569
  1.09872867 1.09776943 0.09971653 1.09754933 1.09771506 0.09973024
  1.09686096 1.09809104 0.09975414 1.09898199 0.09965222 0.09985223
  1.09832509 0.         1.09936592 1.09634547 0.0997872  1.09867653
  0.09986621 1.0973856 ]
 [0.09981233 0.09931836 1.08982905 0.09991405 0.09939473 1.09571318
  0.09971596 1.09451813 0.09930334 1.09397721 0.0994895  0.09933704
  1.09228549 0.0995735  0.09939577 1.09749813 0.09914531 0.09963683
  0.09962579 1.09082736 0.         1.09101859 0.09947703 0.09970431
  0.0996712  0.09941589]
 [1.09892513 0.09964509 1.09470435 0.09995525 1.09653341 1.097768
  1.09837322 0.09974053 0.09963728 1.09686415 1.09707622 0.09965482
  1.09598333 1.09755732 0.0996854  1.09869736 0.09955499 0.09981091
  1.0978568  0.09956583 1.09918864 0.         0.09972771 1.09830651
  0.0998288  1.09665464]
 [0.09997995 0.09992719 0.09990124 0.09999082 0.09993535 0.09995837
  0.09996966 0.09994677 0.09992559 0.09994152 0.09994547 0.09992919
  0.09992509 0.09995444 0.09993546 0.09997571 0.09990871 0.09996121
  0.09996003 0.09991093 0.09998487 0.09991279 0.         0.09996842
  0.09996488 0.09993761]
 [0.09990136 0.09964173 1.09465425 0.09995483 0.09968187 1.09774689
  0.09985071 1.09711878 0.09963384 1.09683448 0.09973169 0.09965156
  1.09594533 0.09977584 0.09968242 1.09868504 0.09955078 0.09980912
  0.09980332 1.09517895 1.09918096 1.09527946 0.09972513 0.
  0.09982718 0.099693  ]
 [0.09990637 0.09965994 1.09492584 0.09995712 0.09969804 1.09786136
  0.0998583  1.09726516 0.09965245 1.0969953  0.09974532 0.09966926
  1.09615132 0.09978723 0.09969856 1.09875185 0.0995736  0.09981882
  0.09981331 1.09542388 1.09922257 1.09551929 0.0997391  0.09985249
  0.         0.0997086 ]
 [1.09955275 0.09985232 1.09779648 0.09998138 1.09855755 1.09907127
  1.0993231  1.09881236 0.09984907 1.09869517 1.09878341 0.09985637
  1.09832866 1.0989836  0.09986909 1.09945797 0.09981483 0.09992132
  1.09910821 1.09801276 1.09966239 1.09805419 0.0998867  1.09929534
  0.09992877 0.        ]]
transplant
[[0.00000000e+00 2.95692321e-03 0.00000000e+00 1.71744029e-05
  0.00000000e+00 0.00000000e+00 0.00000000e+00 0.00000000e+00
  4.82604795e-04 0.00000000e+00 0.00000000e+00 2.57640574e-03
  0.00000000e+00 0.00000000e+00 1.27724858e-03 0.00000000e+00
  1.10716705e-03 1.33093260e-03 0.00000000e+00 0.00000000e+00
  0.00000000e+00 0.00000000e+00 6.21370397e-04 0.00000000e+00
  9.30900645e-04 0.00000000e+00]
 [0.00000000e+00 0.00000000e+00 0.00000000e+00 4.22217523e-04
  0.00000000e+00 0.00000000e+00 0.00000000e+00 0.00000000e+00
  1.98845636e-05 0.00000000e+00 0.00000000e+00 1.67454756e-04
  0.00000000e+00 0.00000000e+00 6.28671264e-05 0.00000000e+00
  4.90034083e-05 1.80714432e-04 0.00000000e+00 0.00000000e+00
  0.00000000e+00 0.00000000e+00 2.71435458e-05 0.00000000e+00
  2.39018571e-04 0.00000000e+00]
 [0.00000000e+00 3.93475242e-04 0.00000000e+00 1.18335807e-06
  0.00000000e+00 0.00000000e+00 0.00000000e+00 0.00000000e+00
  8.63854839e-04 0.00000000e+00 0.00000000e+00 4.51960830e-04
  0.00000000e+00 0.00000000e+00 8.00119414e-04 0.00000000e+00
  1.59701769e-03 1.35377894e-04 0.00000000e+00 0.00000000e+00
  0.00000000e+00 0.00000000e+00 9.28360775e-04 0.00000000e+00
  8.49541328e-05 0.00000000e+00]
 [7.06876088e-04 2.16902587e-03 8.73936744e-04 0.00000000e+00
  6.80784336e-04 7.71711766e-04 6.05702387e-04 1.58577971e-03
  3.16651715e-04 7.29274956e-04 1.25491893e-03 1.86266839e-03
  5.54696270e-04 2.56532841e-04 8.73999821e-04 2.55817102e-04
  7.39345546e-04 1.36785795e-03 2.46783763e-04 2.49626045e-03
  3.24685541e-04 5.89934457e-04 4.13632657e-04 7.77945671e-04
  9.84293099e-04 1.23182504e-04]
 [0.00000000e+00 8.20300647e-04 0.00000000e+00 3.20705863e-06
  0.00000000e+00 0.00000000e+00 0.00000000e+00 0.00000000e+00
  3.35616074e-04 0.00000000e+00 0.00000000e+00 9.03565163e-04
  0.00000000e+00 0.00000000e+00 7.74739341e-04 0.00000000e+00
  7.24918888e-04 3.08022480e-04 0.00000000e+00 0.00000000e+00
  0.00000000e+00 0.00000000e+00 4.11121711e-04 0.00000000e+00
  2.03710038e-04 0.00000000e+00]
 [0.00000000e+00 1.30306999e-03 0.00000000e+00 4.30133568e-06
  0.00000000e+00 0.00000000e+00 0.00000000e+00 0.00000000e+00
  1.33177098e-03 0.00000000e+00 0.00000000e+00 1.47248052e-03
  0.00000000e+00 0.00000000e+00 2.37038781e-03 0.00000000e+00
  2.66489517e-03 4.63276446e-04 0.00000000e+00 0.00000000e+00
  0.00000000e+00 0.00000000e+00 1.53040198e-03 0.00000000e+00
  2.96246904e-04 0.00000000e+00]
 [0.00000000e+00 1.79030220e-03 0.00000000e+00 5.18152905e-05
  0.00000000e+00 0.00000000e+00 0.00000000e+00 2.23035903e-03
  2.14757875e-04 0.00000000e+00 0.00000000e+00 1.49319171e-03
  0.00000000e+00 0.00000000e+00 6.33865300e-04 0.00000000e+00
  5.15263509e-04 1.35334733e-03 0.00000000e+00 3.94779917e-03
  0.00000000e+00 0.00000000e+00 2.86840171e-04 0.00000000e+00
  1.55664505e-03 0.00000000e+00]
 [0.00000000e+00 3.18106254e-04 0.00000000e+00 2.88470215e-04
  0.00000000e+00 0.00000000e+00 0.00000000e+00 0.00000000e+00
  3.06967749e-05 0.00000000e+00 0.00000000e+00 2.55298841e-04
  0.00000000e+00 0.00000000e+00 9.66416616e-05 0.00000000e+00
  7.55269531e-05 2.71823772e-04 0.00000000e+00 0.00000000e+00
  0.00000000e+00 0.00000000e+00 4.18479720e-05 0.00000000e+00
  3.55071123e-04 0.00000000e+00]
 [1.71680445e-04 7.48869116e-04 0.00000000e+00 3.27814690e-06
  1.18534519e-04 0.00000000e+00 3.12050793e-04 0.00000000e+00
  0.00000000e+00 0.00000000e+00 2.40419284e-04 8.12997003e-04
  0.00000000e+00 4.31233178e-05 4.83602630e-04 0.00000000e+00
  4.36478136e-04 2.90664019e-04 1.49221741e-04 0.00000000e+00
  0.00000000e+00 0.00000000e+00 2.46292313e-04 1.51002456e-04
  1.96485573e-04 2.01865707e-05]
 [0.00000000e+00 7.66909354e-04 0.00000000e+00 5.18270808e-06
  0.00000000e+00 0.00000000e+00 0.00000000e+00 4.41340898e-04
  1.20379518e-04 0.00000000e+00 0.00000000e+00 6.64940022e-04
  0.00000000e+00 0.00000000e+00 3.23417411e-04 0.00000000e+00
  2.77926572e-04 3.86256424e-04 0.00000000e+00 6.91524649e-04
  0.00000000e+00 0.00000000e+00 1.55802998e-04 0.00000000e+00
  2.72673045e-04 0.00000000e+00]
 [2.22139671e-04 9.95433793e-04 1.17626343e-03 3.76446628e-06
  1.38930857e-04 1.71088180e-04 5.93816147e-04 4.00113975e-04
  4.73601026e-04 1.51748414e-04 0.00000000e+00 1.10157064e-03
  7.70842960e-04 4.99241725e-05 1.06720053e-03 3.32144554e-04
  1.01165128e-03 3.69973515e-04 3.52713520e-04 6.16489498e-04
  7.43214038e-05 8.31798655e-04 5.74811548e-04 1.84598113e-04
  2.43086156e-04 2.31706392e-05]
 [3.18023976e-04 9.30469003e-04 0.00000000e+00 2.69298232e-05
  8.26221791e-04 0.00000000e+00 2.39808289e-04 0.00000000e+00
  1.11615540e-04 0.00000000e+00 1.32544782e-03 0.00000000e+00
  0.00000000e+00 3.30677709e-04 3.29437128e-04 0.00000000e+00
  2.67796534e-04 7.03371614e-04 8.81694103e-05 0.00000000e+00
  0.00000000e+00 0.00000000e+00 1.49078680e-04 8.08087994e-04
  8.09030995e-04 1.66506898e-04]
 [0.00000000e+00 6.41660933e-04 0.00000000e+00 3.68877762e-05
  0.00000000e+00 0.00000000e+00 0.00000000e+00 0.00000000e+00
  7.13230921e-05 0.00000000e+00 0.00000000e+00 5.28420246e-04
  0.00000000e+00 0.00000000e+00 2.15567345e-04 0.00000000e+00
  1.72734580e-04 5.03992223e-04 0.00000000e+00 0.00000000e+00
  0.00000000e+00 0.00000000e+00 9.59922008e-05 0.00000000e+00
  6.01205833e-04 0.00000000e+00]
 [0.00000000e+00 1.90539288e-03 0.00000000e+00 1.28764827e-05
  0.00000000e+00 0.00000000e+00 0.00000000e+00 0.00000000e+00
  2.99083947e-04 0.00000000e+00 0.00000000e+00 1.65204920e-03
  0.00000000e+00 0.00000000e+00 8.03533336e-04 0.00000000e+00
  6.90510957e-04 9.59657405e-04 0.00000000e+00 0.00000000e+00
  0.00000000e+00 0.00000000e+00 3.87093887e-04 0.00000000e+00
  6.77458524e-04 0.00000000e+00]
 [0.00000000e+00 1.70517086e-03 0.00000000e+00 2.15835698e-05
  0.00000000e+00 0.00000000e+00 0.00000000e+00 0.00000000e+00
  2.33249294e-04 0.00000000e+00 0.00000000e+00 1.45100616e-03
  0.00000000e+00 0.00000000e+00 0.00000000e+00 0.00000000e+00
  5.49824597e-04 1.21787293e-03 0.00000000e+00 0.00000000e+00
  0.00000000e+00 0.00000000e+00 3.07072938e-04 0.00000000e+00
  9.87824761e-04 0.00000000e+00]
 [0.00000000e+00 1.60185059e-04 0.00000000e+00 3.76853615e-04
  0.00000000e+00 0.00000000e+00 0.00000000e+00 0.00000000e+00
  1.51848599e-05 0.00000000e+00 0.00000000e+00 1.28113612e-04
  0.00000000e+00 0.00000000e+00 4.80384294e-05 0.00000000e+00
  3.74303708e-05 1.38538533e-04 0.00000000e+00 0.00000000e+00
  0.00000000e+00 0.00000000e+00 2.07321798e-05 0.00000000e+00
  1.83583902e-04 0.00000000e+00]
 [1.41903227e-04 4.29151184e-04 1.63874553e-04 5.43207414e-06
  1.80651717e-04 2.00144798e-04 1.16817922e-04 3.98599202e-04
  5.87033315e-05 1.92439667e-04 3.21400335e-04 3.65183938e-04
  1.03639279e-04 6.90512848e-05 1.65828802e-04 4.81711777e-05
  0.00000000e+00 3.06509816e-04 4.59683210e-05 6.30503897e-04
  8.35189455e-05 1.10047897e-04 7.72829970e-05 1.98346258e-04
  2.48612133e-04 3.35167118e-05]
 [0.00000000e+00 4.03882728e-04 0.00000000e+00 7.88592746e-05
  0.00000000e+00 0.00000000e+00 0.00000000e+00 0.00000000e+00
  4.11816530e-05 0.00000000e+00 0.00000000e+00 3.27528916e-04
  0.00000000e+00 0.00000000e+00 1.27668030e-04 0.00000000e+00
  1.00726038e-04 0.00000000e+00 0.00000000e+00 0.00000000e+00
  0.00000000e+00 0.00000000e+00 5.58724188e-05 0.00000000e+00
  4.18280155e-04 0.00000000e+00]
 [9.42811018e-05 4.49166678e-04 0.00000000e+00 1.28361582e-06
  4.89407664e-05 0.00000000e+00 3.12968340e-04 0.00000000e+00
  1.79066965e-03 0.00000000e+00 1.09680603e-04 5.20990298e-04
  0.00000000e+00 1.72410979e-05 9.81514347e-04 0.00000000e+00
  2.07172016e-03 1.51656500e-04 0.00000000e+00 0.00000000e+00
  0.00000000e+00 0.00000000e+00 1.34422272e-03 6.99481516e-05
  9.41866282e-05 7.89514989e-06]
 [0.00000000e+00 4.65915747e-04 0.00000000e+00 3.18680255e-05
  0.00000000e+00 0.00000000e+00 0.00000000e+00 0.00000000e+00
  5.09855492e-05 0.00000000e+00 0.00000000e+00 3.82654527e-04
  0.00000000e+00 0.00000000e+00 1.54826750e-04 0.00000000e+00
  1.23707824e-04 3.69045321e-04 0.00000000e+00 0.00000000e+00
  0.00000000e+00 0.00000000e+00 6.87234165e-05 0.00000000e+00
  4.43932054e-04 0.00000000e+00]
 [2.66218940e-04 7.43652447e-04 0.00000000e+00 1.21919230e-04
  2.87518165e-03 0.00000000e+00 1.78868607e-04 0.00000000e+00
  7.65414311e-05 0.00000000e+00 1.47559660e-03 6.04107680e-04
  0.00000000e+00 1.32225035e-03 2.36650586e-04 0.00000000e+00
  1.87018084e-04 6.10050532e-04 6.10050361e-05 0.00000000e+00
  0.00000000e+00 0.00000000e+00 1.03758538e-04 7.95225457e-04
  7.61098551e-04 7.59972294e-04]
 [0.00000000e+00 1.68318175e-04 0.00000000e+00 1.29351388e-04
  0.00000000e+00 0.00000000e+00 0.00000000e+00 2.58826557e-04
  1.63091066e-05 0.00000000e+00 0.00000000e+00 1.35191828e-04
  0.00000000e+00 0.00000000e+00 5.12877199e-05 0.00000000e+00
  4.01099928e-05 1.43438006e-04 0.00000000e+00 4.73665453e-04
  0.00000000e+00 0.00000000e+00 2.22259444e-05 0.00000000e+00
  1.86769628e-04 0.00000000e+00]
 [5.39123755e-05 1.55930428e-04 5.15082983e-05 6.34721907e-06
  1.86874823e-04 1.87387239e-04 3.94736507e-05 2.00966748e-04
  1.79534475e-05 1.94053756e-04 2.59018621e-04 1.29180380e-04
  3.22916844e-05 7.65248388e-05 5.36792752e-05 1.52986790e-05
  4.32963035e-05 1.20261308e-04 1.42178624e-05 3.57444640e-04
  7.56587832e-05 3.41571955e-05 0.00000000e+00 1.42177114e-04
  1.40942942e-04 3.92892228e-05]
 [6.21170209e-05 1.69910682e-04 0.00000000e+00 1.30575219e-04
  9.86273864e-04 0.00000000e+00 3.97061031e-05 0.00000000e+00
  1.64634118e-05 0.00000000e+00 3.80604533e-04 1.36470917e-04
  0.00000000e+00 1.06482029e-03 5.17729679e-05 0.00000000e+00
  4.04894851e-05 1.44795114e-04 1.31634607e-05 0.00000000e+00
  0.00000000e+00 0.00000000e+00 2.24362305e-05 0.00000000e+00
  1.88536710e-04 8.25652504e-04]
 [3.75743530e-04 1.12837369e-03 0.00000000e+00 1.67937779e-05
  5.50859572e-04 0.00000000e+00 3.03478875e-04 0.00000000e+00
  1.49821016e-04 0.00000000e+00 9.61524410e-04 9.56011029e-04
  0.00000000e+00 2.12243271e-04 4.27599006e-04 0.00000000e+00
  3.54645530e-04 8.15604098e-04 1.17563088e-04 0.00000000e+00
  0.00000000e+00 0.00000000e+00 1.97915838e-04 5.91994594e-04
  0.00000000e+00 1.03655705e-04]
 [0.00000000e+00 2.92129672e-04 0.00000000e+00 9.24852603e-07
  0.00000000e+00 0.00000000e+00 0.00000000e+00 0.00000000e+00
  4.05913516e-04 0.00000000e+00 0.00000000e+00 3.32465915e-04
  0.00000000e+00 0.00000000e+00 5.57077689e-04 0.00000000e+00
  7.87998494e-04 1.02368358e-04 0.00000000e+00 0.00000000e+00
  0.00000000e+00 0.00000000e+00 4.54688627e-04 0.00000000e+00
  6.49113012e-05 0.00000000e+00]]
HELLO WORLD!
  Iteration		V-variation
HELLO WORLD!
    1		  0.6781268292468003
HELLO WORLD!
    2		  0.4302202855753125
HELLO WORLD!
    3		  0.0737739913177422
HELLO WORLD!
    4		  0.022393608906141615
HELLO WORLD!
    5		  0.007170489159543436
Iterating stopped, epsilon-optimal policy found.
0.1
(0, 0, 0, 1, 0, 0, 0, 0, 1, 0, 1, 1, 0, 0, 0, 0, 1, 0, 1, 0, 1, 0, 1, 1, 1, 0)
(0.7365453114682925, 0.7755692054286378, 0.7387074426900279, 0.6196842799296761, 0.7387776195533003, 0.7369491729329649, 0.6566265130835918, 0.7360525216043368, 0.6190232091426028, 0.6592272751184113, 0.6193124236779494, 0.6191392612779238, 0.7381645237562156, 0.737716194333174, 0.777288068497815, 0.7363323629768853, 0.6190330460857623, 0.7777124818766399, 0.6191638050968971, 0.7385763797107906, 0.6192839195038797, 0.6584518277347161, 0.6189532218499942, 0.6190173741192057, 0.6191328195430368, 0.7392182021931408)
wait
[[0.         0.09924069 1.08877252 0.09989007 1.09255058 1.09560761
  1.09645701 0.09921451 1.09315499 1.09419499 0.09926912 1.09136977
  1.09475044 0.09936704 1.09717312 0.09906375 0.09960136 1.09548728
  1.09005153 1.0974739  1.09002448 0.0993977  1.09576741 0.09960261
  1.09284715 0.0999135  1.09315306]
 [1.09717232 0.         1.08689043 0.09987165 1.09130181 1.0948713
  1.09586309 0.09908284 1.09200754 1.09322188 0.0991466  1.08992307
  1.09387045 0.09926093 1.09669925 0.0989068  0.09953454 1.09473079
  1.08838384 1.09705044 1.08835226 0.09929673 1.09505789 0.09953599
  1.0916481  0.099899   1.09200528]
 [1.09891015 0.09965829 0.         0.09995053 1.09664752 1.09802329
  1.09840554 0.09964651 1.09691953 1.09738756 0.09967108 1.09611612
  1.09763753 0.09971515 1.09872782 0.09957866 0.0998206  1.09796913
  1.09552287 1.09886317 1.0955107  0.09972894 1.0980952  0.09982116
  1.09678099 0.09996107 1.09691866]
 [0.09980941 0.09934267 0.0991164  0.         0.09941373 0.09965432
  0.09972117 0.09932    0.0994613  0.09954314 0.09936728 0.0993208
  0.09958686 0.09945204 0.09977752 0.09918948 0.0996549  0.09964485
  0.09921705 0.0998012  0.09921493 0.09947858 0.09966689 0.09965598
  0.09943707 0.09992512 0.09946114]
 [1.09908216 0.09971222 1.09574473 0.09995834 0.         1.09833526
  1.09865719 0.0997023  1.09740571 1.09779987 0.09972299 1.0967291
  1.09801039 0.0997601  1.0989286  0.09964516 0.09984891 1.09828966
  1.09622948 1.09904259 1.09621923 0.09977172 1.09839583 0.09984939
  1.09728903 0.09996722 1.09740497]
 [1.09781775 0.09931577 1.08988272 0.09990094 1.0932872  0.
  1.09680735 0.09929218 1.09383184 1.094769   0.09934139 1.09222315
  1.09526953 0.09942963 1.09745265 0.09915632 0.09964078 1.0959335
  1.09103525 1.09772368 1.09101088 0.09945725 1.09618594 0.0996419
  1.09355444 0.09992206 1.0938301 ]
 [1.09731871 0.0991593  1.08756909 0.09987829 1.09175211 1.09513681
  0.         0.09913032 1.0924213  1.09357277 0.09919078 1.09044473
  1.09418776 0.09929919 1.09687012 0.09896339 0.09955863 1.09500357
  0.09899865 1.09720313 1.08895525 0.09933314 1.09531374 0.09956001
  1.09208046 0.09990423 0.09931083]
 [0.09992131 0.0997286  1.09598701 0.09996071 0.09975794 1.09843005
  0.09988488 0.         1.09755342 0.09981138 0.09973876 1.09691534
  0.09982942 0.09977376 1.0989896  0.09966536 0.09985752 0.09985337
  1.09644416 1.09909711 1.0964345  0.09978472 0.09986247 0.09985796
  0.09976758 0.09996908 1.09755273]
 [1.09928665 0.09977633 1.09669278 0.09996762 1.09780566 1.09870616
  1.09895636 0.09976862 0.         1.09829005 0.09978471 1.09745784
  1.09845366 0.09981355 1.0991673  0.09972421 0.09988258 1.09867071
  0.09973359 1.0992559  1.09706156 0.09982258 1.09875323 0.09988294
  1.09789302 0.09997452 0.09981665]
 [0.09989062 0.09962274 0.09949288 0.09994538 0.09966352 0.0998016
  0.09983997 0.09960973 0.09969082 0.         0.09963686 0.09961019
  0.09976289 0.09968551 0.09987232 0.09953482 0.09980194 0.09979617
  0.09955065 0.0998859  0.09954943 0.09970075 0.09980882 0.09980256
  0.09967692 0.09995702 0.09969074]
 [0.09986278 0.09952673 1.09300201 0.09993148 0.09957789 1.09726226
  0.09979924 0.09951041 1.09573356 0.09967107 0.         1.09462086
  0.09970255 0.09960548 1.09823803 0.09941644 0.09975153 0.0997443
  1.0937992  1.0984255  1.09378235 0.09962459 0.09976017 0.09975231
  0.0995947  0.09994609 1.09573236]
 [1.09869663 0.09959134 1.09395735 0.09994084 1.09599071 1.09763601
  1.09809316 0.09957725 1.096316   1.09687573 0.09960664 0.
  1.09717468 0.09965934 1.09847857 0.09949611 0.09978545 1.09757125
  1.09464572 1.09864045 1.09463116 0.09967584 1.09772201 0.09978612
  1.09615033 0.09995345 1.09631496]
 [1.09838129 0.09949247 1.09249541 0.09992652 1.09502071 1.09706407
  1.09763182 0.09947497 1.09542471 1.09611986 0.09951147 1.09423145
  0.         0.09957692 1.09811048 0.0993742  0.09973355 1.09698364
  1.09335031 1.09831152 1.09333224 0.09959741 1.09717088 0.09973438
  1.09521894 0.09994219 1.09542342]
 [1.09812188 0.09941113 1.09129273 0.09991475 1.09422274 1.09659356
  1.0972523  0.09939083 1.09469147 1.09549803 0.09943318 1.09330698
  1.0959288  0.         1.09780767 0.09927391 0.09969084 1.09650024
  1.09228464 1.09804093 1.09226367 0.09953289 1.09671749 0.09969181
  1.09445274 0.09993292 1.09468998]
 [1.09746537 0.09920529 1.08824904 0.09988495 1.09220325 1.09540282
  1.09629182 0.09917789 1.09283584 1.09392433 0.09923504 1.09096739
  1.09450568 0.09933753 0.         0.09902009 0.09958278 1.09527687
  1.08958768 1.09735612 1.08955937 0.09936961 1.09557007 0.09958408
  1.09251365 0.09990947 1.09283382]
 [0.09994726 0.0998181  0.09975549 0.09997367 0.09983776 0.09990434
  0.09992284 0.09981183 0.09985093 0.09987358 0.09982491 0.09981205
  0.09988567 0.09984837 0.09993844 0.         0.0999045  0.09990172
  0.09978334 0.09994499 0.09978275 0.09985571 0.09990782 0.0999048
  0.09984422 0.09997928 0.09985089]
 [1.0985147  0.0995343  1.09311391 0.09993258 1.09543109 1.09730604
  1.097827   0.09951824 1.09580179 1.09643965 0.09955173 1.09470687
  1.09678032 0.09961179 1.09826621 0.09942577 0.         1.09723224
  1.09389836 1.09845068 1.09388177 0.09963059 1.09740405 0.09975627
  1.09561298 0.09994695 1.0958006 ]
 [0.09984993 0.09948241 1.09234667 0.09992507 0.09953837 1.09700588
  0.09978044 0.09946456 1.09533403 0.09964027 0.09950179 1.09411712
  0.09967469 0.09956853 1.09807303 0.09936179 0.09972827 0.
  1.09321852 1.09827806 1.09320009 0.09958943 0.09973771 0.09972911
  0.09955674 0.09994104 1.09533271]
 [1.0987658  0.09961303 1.09427804 0.09994398 1.09620349 1.09776147
  1.09819436 0.09959968 1.09651152 1.09704154 0.09962752 1.0956017
  1.09732462 0.09967742 1.09855931 0.09952285 0.09979684 1.09770014
  0.         1.0987126  1.09491609 0.09969304 1.09784291 0.09979747
  1.09635463 0.09995592 1.09651053]
 [0.09977455 0.09922244 1.08850265 0.09988743 0.0993065  1.09550203
  0.09967017 0.09919563 1.09299046 0.09945959 0.09925155 1.09116233
  0.0995113  0.09935182 1.09710518 0.09904124 0.09959178 0.09957989
  1.0898124  0.         1.08978471 0.09938322 0.09960597 0.09959306
  0.09933411 0.09991143 1.09298848]
 [1.09856388 0.09954972 1.0933419  0.09993481 1.09558236 1.09739523
  1.09789894 0.09953419 1.09594078 1.09655752 0.09956658 1.09488212
  1.09688692 0.09962464 1.09832361 0.09944478 0.0997636  1.09732387
  0.09946367 1.09850198 0.         0.09964282 1.09749    0.09976434
  1.09575823 0.09994871 0.09963088]
 [0.09997534 0.09991496 0.09988569 0.09998769 0.09992415 0.09995528
  0.09996393 0.09991203 0.09993031 0.0999409  0.09991814 0.09991213
  0.09994655 0.09992911 0.09997122 0.09989514 0.09995535 0.09995405
  0.09989871 0.09997428 0.09989843 0.         0.09995691 0.09995549
  0.09992717 0.09999031 0.09993029]
 [0.09986616 0.0995384  1.09317462 0.09993317 0.09958831 1.09732979
  0.0998042  0.09952249 1.0958388  0.09967918 0.09955569 1.09475353
  0.09970988 0.09961521 1.09828149 0.09943083 0.09975766 0.0997506
  1.09395215 1.09846434 1.09393571 0.09963385 0.         0.09975842
  0.0996047  0.09994742 1.09583762]
 [0.09988985 0.09962009 1.09438246 0.099945   0.09966116 1.09780232
  0.09983885 0.09960699 1.09657518 0.09973596 0.09963431 1.09568197
  0.09976122 0.0996833  1.09858561 0.09953156 0.09980055 0.09979474
  1.0950224  1.09873609 1.09500887 0.09969864 0.09980748 0.
  0.09967465 0.09995672 1.09657421]
 [1.09947684 0.09983597 1.09757454 0.09997625 1.09839071 1.09905112
  1.09923461 0.09983031 1.09852128 1.09874595 0.09984211 1.09813562
  1.09886594 0.09986326 1.09938931 0.09979774 0.09991388 1.09902512
  1.09785084 1.09945429 1.097845   0.09986988 1.09908564 0.09991415
  0.         0.09998131 1.09852086]
 [0.09986405 0.09953111 0.09936971 0.09993212 0.0995818  0.09975342
  0.0998011  0.09951494 0.09961573 0.09967412 0.09954867 0.09951551
  0.0997053  0.09960913 0.0998413  0.09942184 0.09975383 0.09974666
  0.09944151 0.09985819 0.09943999 0.09962806 0.09976239 0.0997546
  0.09959845 0.         0.09961562]
 [0.09984064 0.09945037 0.09926118 0.09992043 0.0995098  0.09971096
  0.09976686 0.09943143 0.09954957 0.099618   0.09947095 0.09943209
  0.09965456 0.09954183 0.09981398 0.09932229 0.09971145 0.09970304
  0.09934535 0.09983377 0.09934357 0.09956402 0.09972148 0.09971235
  0.09952931 0.09993739 0.        ]]
transplant
[[0.00000000e+00 3.60687628e-03 0.00000000e+00 2.40529947e-05
  0.00000000e+00 0.00000000e+00 0.00000000e+00 5.95857107e-04
  0.00000000e+00 0.00000000e+00 3.11031310e-03 0.00000000e+00
  0.00000000e+00 1.46515223e-03 0.00000000e+00 1.32808645e-03
  1.59977828e-03 0.00000000e+00 0.00000000e+00 0.00000000e+00
  0.00000000e+00 7.83649263e-04 0.00000000e+00 1.23201995e-03
  0.00000000e+00 1.03105496e-04 0.00000000e+00]
 [0.00000000e+00 0.00000000e+00 0.00000000e+00 5.46211821e-04
  0.00000000e+00 0.00000000e+00 0.00000000e+00 2.26779549e-05
  0.00000000e+00 0.00000000e+00 1.86734547e-04 0.00000000e+00
  0.00000000e+00 6.66144219e-05 0.00000000e+00 5.42971223e-05
  2.00647568e-04 0.00000000e+00 0.00000000e+00 0.00000000e+00
  0.00000000e+00 3.16209624e-05 0.00000000e+00 2.92202136e-04
  0.00000000e+00 4.11064782e-06 0.00000000e+00]
 [0.00000000e+00 5.27828263e-04 0.00000000e+00 1.82258467e-06
  0.00000000e+00 0.00000000e+00 0.00000000e+00 1.17293863e-03
  0.00000000e+00 0.00000000e+00 6.00032369e-04 0.00000000e+00
  0.00000000e+00 1.00936016e-03 0.00000000e+00 2.10672064e-03
  1.78951571e-04 0.00000000e+00 0.00000000e+00 0.00000000e+00
  0.00000000e+00 1.28757336e-03 0.00000000e+00 1.23646819e-04
  0.00000000e+00 1.75230947e-04 0.00000000e+00]
 [9.05340267e-04 2.63796543e-03 1.05328165e-03 0.00000000e+00
  8.31630310e-04 8.63304382e-04 7.49898965e-04 3.89803292e-04
  9.04922297e-04 1.41636723e-03 2.24201526e-03 6.77505012e-04
  3.13400997e-04 9.99612852e-04 3.15583681e-04 8.84247458e-04
  1.63929796e-03 2.95389411e-04 2.95593954e-03 5.74645395e-04
  7.15382921e-04 5.20114734e-04 1.10528378e-03 1.29882912e-03
  1.49722467e-04 6.82324109e-05 7.64371926e-04]
 [0.00000000e+00 1.01973688e-03 0.00000000e+00 4.57739383e-06
  0.00000000e+00 0.00000000e+00 0.00000000e+00 4.22296144e-04
  0.00000000e+00 0.00000000e+00 1.11166313e-03 0.00000000e+00
  0.00000000e+00 9.05705079e-04 0.00000000e+00 8.86189255e-04
  3.77320166e-04 0.00000000e+00 0.00000000e+00 0.00000000e+00
  0.00000000e+00 5.28403219e-04 0.00000000e+00 2.74758230e-04
  0.00000000e+00 7.02082678e-05 0.00000000e+00]
 [0.00000000e+00 1.58381581e-03 0.00000000e+00 6.00256092e-06
  0.00000000e+00 0.00000000e+00 0.00000000e+00 1.63842200e-03
  0.00000000e+00 0.00000000e+00 1.77127152e-03 0.00000000e+00
  0.00000000e+00 2.70939582e-03 0.00000000e+00 3.18521720e-03
  5.54868005e-04 0.00000000e+00 0.00000000e+00 0.00000000e+00
  0.00000000e+00 1.92319101e-03 0.00000000e+00 3.90673506e-04
  0.00000000e+00 2.58624026e-04 0.00000000e+00]
 [0.00000000e+00 2.09955448e-03 0.00000000e+00 6.97678034e-05
  0.00000000e+00 0.00000000e+00 0.00000000e+00 2.54923101e-04
  0.00000000e+00 0.00000000e+00 1.73306570e-03 0.00000000e+00
  0.00000000e+00 6.99059115e-04 0.00000000e+00 5.94226729e-04
  1.56394908e-03 0.00000000e+00 4.50772215e-03 0.00000000e+00
  0.00000000e+00 3.47792928e-04 0.00000000e+00 1.98067677e-03
  0.00000000e+00 4.54182994e-05 5.22789897e-04]
 [2.78831290e-04 1.15494797e-03 0.00000000e+00 5.80471923e-06
  1.83619047e-04 0.00000000e+00 4.89915175e-04 0.00000000e+00
  0.00000000e+00 3.44097590e-04 1.24092089e-03 0.00000000e+00
  6.68069588e-05 7.01392753e-04 0.00000000e+00 6.61974081e-04
  4.41733468e-04 2.26497064e-04 0.00000000e+00 0.00000000e+00
  0.00000000e+00 3.92723895e-04 2.72057482e-04 3.28783774e-04
  3.11137692e-05 5.19328608e-05 0.00000000e+00]
 [0.00000000e+00 1.00686733e-03 0.00000000e+00 7.81234239e-06
  0.00000000e+00 0.00000000e+00 0.00000000e+00 1.59970574e-04
  0.00000000e+00 0.00000000e+00 8.63991240e-04 0.00000000e+00
  0.00000000e+00 3.99307742e-04 0.00000000e+00 3.58823003e-04
  4.99708183e-04 0.00000000e+00 8.83969257e-04 0.00000000e+00
  0.00000000e+00 2.11487154e-04 0.00000000e+00 3.88412887e-04
  0.00000000e+00 2.77963620e-05 3.07997257e-04]
 [2.94179481e-04 1.25179858e-03 1.46584085e-03 5.43527840e-06
  1.75483859e-04 1.97900339e-04 7.60174294e-04 6.02828810e-04
  1.94698165e-04 0.00000000e+00 1.37098619e-03 9.73511050e-04
  6.30646494e-05 1.26207227e-03 4.23672043e-04 1.25105068e-03
  4.58464003e-04 4.36534081e-04 7.54829805e-04 1.36009296e-04
  1.04296738e-03 7.47356007e-04 2.71187392e-04 3.31669480e-04
  2.91201542e-05 9.94770448e-05 1.02617161e-03]
 [4.25421743e-04 1.18194577e-03 0.00000000e+00 3.92758372e-05
  1.05416520e-03 0.00000000e+00 3.10097977e-04 1.43509151e-04
  0.00000000e+00 1.56247870e-03 0.00000000e+00 0.00000000e+00
  4.21942815e-04 3.93535853e-04 0.00000000e+00 3.34520382e-04
  8.80426305e-04 1.10226889e-04 0.00000000e+00 0.00000000e+00
  0.00000000e+00 1.95790290e-04 1.19915261e-03 1.11502347e-03
  2.11378812e-04 2.55682657e-05 0.00000000e+00]
 [0.00000000e+00 7.45502417e-04 0.00000000e+00 4.92064734e-05
  0.00000000e+00 0.00000000e+00 0.00000000e+00 8.38750730e-05
  0.00000000e+00 0.00000000e+00 6.07605307e-04 0.00000000e+00
  0.00000000e+00 2.35528003e-04 0.00000000e+00 1.97353457e-04
  5.77005330e-04 0.00000000e+00 0.00000000e+00 0.00000000e+00
  0.00000000e+00 1.15307983e-04 0.00000000e+00 7.57861511e-04
  0.00000000e+00 1.50342338e-05 0.00000000e+00]
 [0.00000000e+00 2.28473578e-03 0.00000000e+00 1.77273983e-05
  0.00000000e+00 0.00000000e+00 0.00000000e+00 3.62997672e-04
  0.00000000e+00 0.00000000e+00 1.96052811e-03 0.00000000e+00
  0.00000000e+00 9.06090267e-04 0.00000000e+00 8.14224210e-04
  1.13391421e-03 0.00000000e+00 0.00000000e+00 0.00000000e+00
  0.00000000e+00 4.79896661e-04 0.00000000e+00 8.81368176e-04
  0.00000000e+00 6.30741917e-05 0.00000000e+00]
 [0.00000000e+00 2.08661806e-03 0.00000000e+00 3.03245694e-05
  0.00000000e+00 0.00000000e+00 0.00000000e+00 2.88904753e-04
  0.00000000e+00 0.00000000e+00 1.75728810e-03 0.00000000e+00
  0.00000000e+00 0.00000000e+00 0.00000000e+00 6.61639180e-04
  1.46855280e-03 0.00000000e+00 0.00000000e+00 0.00000000e+00
  0.00000000e+00 3.88504964e-04 0.00000000e+00 1.31152984e-03
  0.00000000e+00 5.08858438e-05 0.00000000e+00]
 [0.00000000e+00 1.91740333e-04 0.00000000e+00 5.17917356e-04
  0.00000000e+00 0.00000000e+00 0.00000000e+00 1.83976160e-05
  0.00000000e+00 0.00000000e+00 1.51769813e-04 0.00000000e+00
  0.00000000e+00 5.40749829e-05 0.00000000e+00 4.40593000e-05
  1.63408479e-04 0.00000000e+00 0.00000000e+00 0.00000000e+00
  0.00000000e+00 2.56576224e-05 0.00000000e+00 2.38423619e-04
  0.00000000e+00 3.33529288e-06 0.00000000e+00]
 [2.24442380e-04 6.44553139e-04 2.43904653e-04 9.36721330e-06
  2.72525343e-04 2.76501300e-04 1.78606389e-04 8.92422379e-05
  2.94889040e-04 4.47971690e-04 5.42823615e-04 1.56324013e-04
  1.04177328e-04 2.34220281e-04 7.33865165e-05 0.00000000e+00
  4.53633724e-04 6.79486805e-05 9.22013907e-04 1.82543356e-04
  1.64801286e-04 1.20008592e-04 3.48010691e-04 4.05129568e-04
  5.03087352e-05 1.57185596e-05 1.77748712e-04]
 [0.00000000e+00 4.64540701e-04 0.00000000e+00 1.04140001e-04
  0.00000000e+00 0.00000000e+00 0.00000000e+00 4.79437009e-05
  0.00000000e+00 0.00000000e+00 3.72835098e-04 0.00000000e+00
  0.00000000e+00 1.38091443e-04 0.00000000e+00 1.13928462e-04
  0.00000000e+00 0.00000000e+00 0.00000000e+00 0.00000000e+00
  0.00000000e+00 6.64424952e-05 0.00000000e+00 5.21986124e-04
  0.00000000e+00 8.64846908e-06 0.00000000e+00]
 [1.24818760e-04 5.64675008e-04 0.00000000e+00 1.85277383e-06
  6.17985366e-05 0.00000000e+00 4.00525844e-04 2.27858796e-03
  0.00000000e+00 1.27960726e-04 6.48215371e-04 0.00000000e+00
  2.17725347e-05 1.16038955e-03 0.00000000e+00 2.56120371e-03
  1.87873098e-04 0.00000000e+00 0.00000000e+00 0.00000000e+00
  0.00000000e+00 1.74719847e-03 1.02727671e-04 1.28470524e-04
  9.91939072e-06 2.65421116e-04 0.00000000e+00]
 [0.00000000e+00 6.50044207e-04 0.00000000e+00 5.10489682e-05
  0.00000000e+00 0.00000000e+00 0.00000000e+00 7.20015585e-05
  0.00000000e+00 0.00000000e+00 5.28373480e-04 0.00000000e+00
  0.00000000e+00 2.03141018e-04 0.00000000e+00 1.69728457e-04
  5.07373452e-04 0.00000000e+00 0.00000000e+00 0.00000000e+00
  0.00000000e+00 9.91334491e-05 0.00000000e+00 6.72009197e-04
  0.00000000e+00 1.29213033e-05 0.00000000e+00]
 [3.19800547e-04 8.48293395e-04 0.00000000e+00 1.59677820e-04
  3.29425907e-03 0.00000000e+00 2.07706124e-04 8.83755121e-05
  0.00000000e+00 1.56206662e-03 6.82007394e-04 0.00000000e+00
  1.51510524e-03 2.53863217e-04 0.00000000e+00 2.09788497e-04
  6.85731999e-04 6.84881975e-05 0.00000000e+00 0.00000000e+00
  0.00000000e+00 1.22371388e-04 1.05970873e-03 9.41976737e-04
  8.66377998e-04 1.59312538e-05 0.00000000e+00]
 [0.00000000e+00 2.13551183e-04 0.00000000e+00 1.88424934e-04
  0.00000000e+00 0.00000000e+00 0.00000000e+00 2.09440387e-05
  0.00000000e+00 0.00000000e+00 1.69754018e-04 0.00000000e+00
  0.00000000e+00 6.11928221e-05 0.00000000e+00 5.00432545e-05
  1.79327849e-04 0.00000000e+00 5.85118680e-04 0.00000000e+00
  0.00000000e+00 2.91548737e-05 0.00000000e+00 2.57099027e-04
  0.00000000e+00 3.79138567e-06 4.47689545e-05]
 [6.63135580e-05 1.82129608e-04 5.96193227e-05 8.51195813e-06
  2.19238522e-04 2.01323351e-04 4.69349196e-05 2.12254462e-05
  2.31252992e-04 2.80760819e-04 1.49329253e-04 3.78785445e-05
  8.97852802e-05 5.89620327e-05 1.81252586e-05 4.97304621e-05
  1.38416588e-04 1.63439853e-05 4.06499256e-04 1.28600202e-04
  3.97797753e-05 0.00000000e+00 1.93999022e-04 1.78614300e-04
  4.58623919e-05 3.79414981e-06 4.39009989e-05]
 [8.42815930e-05 2.18916562e-04 0.00000000e+00 1.93159027e-04
  1.27635608e-03 0.00000000e+00 5.20780009e-05 2.14702484e-05
  0.00000000e+00 4.55079974e-04 1.74019012e-04 0.00000000e+00
  1.37812081e-03 6.27302646e-05 0.00000000e+00 5.13005691e-05
  1.83833382e-04 1.66917546e-05 0.00000000e+00 0.00000000e+00
  0.00000000e+00 2.98873769e-05 0.00000000e+00 2.63558526e-04
  1.06313599e-03 3.88664256e-06 0.00000000e+00]
 [4.42055971e-04 1.26059192e-03 0.00000000e+00 2.15410210e-05
  6.18128629e-04 0.00000000e+00 3.45135107e-04 1.69415678e-04
  0.00000000e+00 9.96868138e-04 1.05701981e-03 0.00000000e+00
  2.38181780e-04 4.49235820e-04 0.00000000e+00 3.89617139e-04
  8.97870084e-04 1.29260707e-04 0.00000000e+00 0.00000000e+00
  0.00000000e+00 2.28603087e-04 7.72608485e-04 0.00000000e+00
  1.15730641e-04 2.99211233e-05 0.00000000e+00]
 [0.00000000e+00 3.24482959e-04 0.00000000e+00 1.17946499e-06
  0.00000000e+00 0.00000000e+00 0.00000000e+00 4.56361529e-04
  0.00000000e+00 0.00000000e+00 3.65478642e-04 0.00000000e+00
  0.00000000e+00 5.81899668e-04 0.00000000e+00 8.60723386e-04
  1.12045519e-04 0.00000000e+00 0.00000000e+00 0.00000000e+00
  0.00000000e+00 5.22168038e-04 0.00000000e+00 7.82275532e-05
  0.00000000e+00 7.05456570e-05 0.00000000e+00]
 [1.23882897e-04 3.24183099e-04 9.31195730e-05 1.45377586e-04
  1.67828052e-03 6.15812184e-04 7.78996553e-05 3.24640850e-05
  1.36162833e-03 6.44650641e-04 2.58723578e-04 5.87606478e-05
  1.25412411e-03 9.43049026e-05 2.85434148e-05 7.73974501e-05
  2.68560223e-04 2.52115875e-05 8.62674521e-04 3.03709987e-04
  6.15278774e-05 4.51100408e-05 4.33462314e-04 3.79056057e-04
  7.94329001e-04 0.00000000e+00 6.91347057e-05]
 [5.64681972e-04 1.58869424e-03 5.60454102e-04 3.77363543e-05
  1.04984759e-03 1.02419051e-03 4.25314977e-04 2.02248861e-04
  1.12490922e-03 1.62561117e-03 1.32124025e-03 3.57630322e-04
  4.11779642e-04 5.46151520e-04 1.69507835e-04 4.68555663e-04
  1.15799795e-03 1.54873866e-04 3.27326997e-03 6.67096619e-04
  3.76295114e-04 2.74549703e-04 1.25381690e-03 1.43826296e-03
  2.02901291e-04 3.58906008e-05 0.00000000e+00]]
HELLO WORLD!
  Iteration		V-variation
HELLO WORLD!
    1		  0.6517747176419507
HELLO WORLD!
    2		  0.3757675089873852
HELLO WORLD!
    3		  0.08247752276033016
HELLO WORLD!
    4		  0.02920905600117285
HELLO WORLD!
    5		  0.011049293545574268
Iterating stopped, epsilon-optimal policy found.
0.1
(0, 0, 0, 1, 0, 0, 0, 1, 0, 1, 1, 0, 0, 0, 0, 1, 0, 1, 0, 1, 0, 1, 1, 1, 0, 1, 1)
(0.7112844686951043, 0.7489840313572874, 0.7136918371751394, 0.5855936362498232, 0.7139039290810838, 0.7117582004055029, 0.6346198590483734, 0.5849101581983107, 0.6374768765662231, 0.585235064365053, 0.5850116925871752, 0.7133064270035259, 0.7127167238839516, 0.7506130041356671, 0.7111096082638796, 0.5849032553161198, 0.7512837111878745, 0.585041021334699, 0.7134425569602508, 0.5851342033530434, 0.6365506181554422, 0.5847625913407761, 0.5848601703905252, 0.5849580621026802, 0.7145381756845907, 0.5850300625484928, 0.5854093028383074)
wait
[[0.         0.0990903  1.08665066 0.09985417 1.09104239 1.09511914
  1.0956929  1.09253483 1.09243791 1.09290792 1.09404706 0.09898746
  1.09028223 0.09904951 1.09166367 1.0934939  0.09913194 1.08962378
  1.09368719 0.09928164 0.09889407 0.09952829 1.09466574 1.09618608
  1.08807774 1.09432175 0.09949288 1.09143476 0.09981833]
 [1.09671001 0.         1.08547188 0.09984129 1.09025142 1.09468815
  1.09531257 1.09187564 1.09177016 1.09228168 1.0935214  0.09889805
  1.08942413 0.09896558 1.09092756 1.0929194  0.09905529 1.08870753
  1.09312976 0.0992182  0.09879641 0.09948664 1.09419471 1.0958493
  1.08702498 1.09382034 0.0994481  1.09067843 0.09980228]
 [1.09853804 0.09956006 0.         0.09992948 1.09566806 1.0976396
  1.09791706 1.09638981 1.09634294 1.09657024 1.09712113 0.09951033
  1.09530044 0.09954034 1.09596852 1.09685362 0.0995802  1.09498201
  1.0969471  0.0996526  0.09946517 0.09977188 1.09742033 1.09815557
  1.09423434 1.09725397 0.09975475 1.09585781 0.09991214]
 [0.09976267 0.09921439 0.09895197 0.         0.09929676 0.09961681
  0.09966186 0.09941392 0.09940632 0.09944322 0.09953265 0.09912559
  0.09923708 0.09917917 0.09934553 0.09948922 0.09925036 0.09918538
  0.09950439 0.09937963 0.09904493 0.09959264 0.09958122 0.09970058
  0.09906401 0.09955421 0.09956206 0.09932756 0.09984311]
 [1.09883657 0.0996499  1.09486246 0.09994388 0.         1.09812159
  1.0983424  1.097127   1.0970897  1.09727059 1.09770899 0.09961032
  1.09626008 0.0996342  1.09679174 1.0974961  0.09966593 1.09600667
  1.09757049 0.09972354 0.09957438 0.09981846 1.09794709 1.0985322
  1.09541168 1.0978147  0.09980483 1.09670364 0.09993008]
 [1.09728392 0.09918267 1.08800615 0.09986898 1.09195195 0.
  1.09613024 1.09329284 1.09320577 1.09362805 1.09465152 0.09909028
  1.09126897 0.09914602 1.09251015 1.09415453 0.09922009 1.09067738
  1.0943282  0.09935458 0.09900637 0.09957619 1.09520738 1.09657334
  1.08928833 1.09489832 0.09954437 1.09230448 0.09983677]
 [1.09676345 0.09902604 1.08570783 0.09984387 1.09040974 1.09477442
  0.         1.09200758 1.09190382 0.09930973 1.09362662 0.09891595
  1.08959589 0.09898238 1.0910749  1.09303439 0.09907063 1.08889093
  1.09324133 0.0992309  0.09881596 0.09949498 1.09428899 1.09591671
  1.0872357  1.0939207  0.09945706 1.09082982 0.0998055 ]
 [0.09989743 0.09966048 0.09954707 0.09994557 0.09969608 0.0998344
  0.09985386 0.         0.09974343 0.09975937 0.09979802 0.0996221
  0.09967029 0.09964526 0.09971716 0.09977925 0.09967602 0.09964794
  0.09978581 0.09973189 0.09958725 0.09982395 0.09981901 0.0998706
  0.09959549 0.09980734 0.09981073 0.09970939 0.0999322 ]
 [0.09981746 0.09939576 1.09113312 0.09990314 0.09945911 1.09675805
  0.09973992 0.09954923 0.         1.09528931 0.09964054 0.09932745
  1.09354528 0.09936867 1.09446286 0.09960714 0.09942342 1.09310792
  0.09961881 0.09952285 0.09926542 0.09968668 0.0996779  1.09746672
  1.09208101 0.09965713 0.09966316 0.0994828  0.09987933]
 [0.09996233 0.0998753  1.09817015 0.09998001 0.09988838 1.09933096
  0.09994633 0.09990697 0.09990577 0.         0.09992582 0.09986121
  1.09866794 0.09986971 1.0988573  0.09991893 0.09988101 1.09857769
  0.09992133 0.09990153 0.09984841 0.09993534 0.09993353 1.09947721
  1.09836576 0.09992924 0.09993049 0.09989327 0.0999751 ]
 [1.09965496 0.09989617 1.09847635 0.09998336 1.09897761 1.09944292
  1.0995084  1.09914795 1.09913689 0.09992641 0.         0.09988443
  1.09889085 0.09989151 1.09904852 1.09925742 0.09990092 1.09881569
  1.09927948 0.09991801 0.09987377 0.09994616 1.09939116 1.09956469
  1.09863923 1.0993519  0.09994212 1.09902239 0.09997926]
 [1.09761114 0.09928114 1.08945113 0.09988476 1.09292155 1.09614307
  1.09659646 1.0941009  1.09402431 0.09949052 1.09529589 0.
  1.09232086 0.09924891 1.0934125  1.09485877 0.09931405 1.09180054
  1.09501152 0.09943234 0.09912608 0.09962725 1.09578478 1.09698618
  1.09057884 1.09551295 0.09959926 1.09323161 0.09985644]
 [0.09996592 0.09988719 0.0998495  0.09998192 0.09989901 0.09994497
  0.09995144 0.09991584 0.09991475 0.09992004 0.09993289 0.09987443
  0.         0.09988213 0.09990602 0.09992665 0.09989235 0.09988302
  0.09992883 0.09991091 0.09986285 0.0999415  0.09993986 0.099957
  0.09986559 0.09993598 0.09993711 0.09990344 0.09997747]
 [0.09988488 0.09961892 1.09440793 0.09993891 0.09965888 1.0979554
  0.09983598 0.09971571 0.09971202 1.09702911 0.0997733  0.09957585
  1.0959292  0.         1.09650789 0.09975223 0.09963637 1.09565337
  0.0997596  0.09969908 0.09953672 0.0998024  0.09979686 1.09840234
  1.09500573 0.09978376 0.09978756 0.09967382 0.0999239 ]
 [1.09905758 0.0997164  1.0958384  0.09995454 1.09720751 1.09847841
  1.09865728 1.09767277 1.09764255 0.09979901 1.0981442  0.09968435
  1.09697053 0.09970369 0.         1.09797175 0.09972939 1.09676526
  1.09803201 0.09977605 0.09965523 0.09985295 1.09833707 1.09881103
  1.09628329 1.09822983 0.09984191 1.09732982 0.09994336]
 [0.09986008 0.09953686 0.09938215 0.09992576 0.09958542 0.0997741
  0.09980065 0.09965449 0.09965    0.09967176 0.09972448 0.0994845
  0.09955023 0.09951609 0.09961417 0.         0.09955806 0.09951976
  0.09970782 0.09963427 0.09943696 0.09975985 0.09975311 0.09982348
  0.0994482  0.09973719 0.09974182 0.09960358 0.09990751]
 [0.09982311 0.09941446 1.09140755 0.09990613 0.09947585 1.09685839
  0.09974797 0.09956318 0.09955751 1.09543511 0.09965167 0.09934827
  1.09374505 0.09938821 1.09463423 0.0996193  0.         1.09332123
  0.09963061 0.09953762 0.09928816 0.09969638 0.09968787 1.09754513
  1.09232611 0.09966774 0.09967359 0.09949881 0.09988306]
 [1.09843978 0.09953049 1.0931103  0.09992473 1.09537691 1.09748095
  1.09777707 1.09614717 1.09609715 1.09633972 1.09692764 0.09947742
  1.09498458 0.09950944 1.09569756 1.09664215 0.09955199 0.
  1.09674191 0.09962925 0.09942922 0.09975655 1.09724694 1.09803161
  1.09384683 1.09706941 0.09973827 1.09557941 0.09990624]
 [1.09800808 0.09940058 1.09120396 0.09990391 1.09409773 1.09678395
  1.097162   1.09508111 1.09501725 1.09532695 1.09607754 0.09933283
  1.09359685 0.09937371 1.0945071  1.09571306 0.09942803 1.09316299
  0.         0.09952666 0.09927129 0.09968919 1.09648519 1.09748696
  1.09214428 1.09625853 0.09966585 1.09435627 0.09988029]
 [1.0976494  0.09929265 1.08962007 0.09988661 1.09303491 1.09620483
  1.09665096 1.09419537 1.09412001 1.09448547 1.09537122 0.09921269
  1.09244384 0.09926093 1.09351799 1.09494111 0.09932503 1.09193185
  1.09509141 0.         0.09914007 0.09963322 1.09585228 1.09703444
  1.09072971 1.09558481 0.09960568 1.09334    0.09985874]
 [0.09992399 0.09974839 0.09966435 0.09995967 0.09977477 0.09987728
  0.0998917  0.0998123  0.09980986 0.09982168 0.09985032 0.09971995
  0.09975566 0.09973711 0.09979039 0.09983641 0.09975991 0.0997391
  0.09984127 0.09980132 0.         0.09986954 0.09986588 0.0999041
  0.09970023 0.09985723 0.09985974 0.09978464 0.09994975]
 [1.09823822 0.09946984 1.09222023 0.09991501 1.09477966 1.09715552
  1.09748989 1.09564942 1.09559294 1.09586686 1.09653072 0.09940991
  1.09433665 0.09944607 1.09514173 1.09620835 0.09949411 1.09395291
  1.096321   0.09958135 0.09935548 0.         1.09689128 1.09777731
  1.0930519  1.09669081 0.09970446 1.09500832 0.09989412]
 [0.09980809 0.09936473 1.09067786 0.09989816 0.09943134 1.09659159
  0.09972657 0.09952608 0.09951993 1.09504744 0.09962208 0.09929292
  1.09321386 0.09933625 1.09417856 0.09958697 0.09939382 1.09275405
  0.09959924 0.09949835 0.0992277  0.0996706  0.         1.09733665
  1.09167442 0.09963952 0.09964586 0.09945625 0.09987313]
 [0.09973463 0.09912157 1.08710957 0.09985918 0.09921367 1.09528693
  0.09962191 0.09934468 0.09933617 1.09315173 0.09947743 0.09902227
  1.0906163  0.09908218 1.09195025 0.09942887 0.09916178 1.08998048
  0.09944584 0.09930633 0.09893209 0.09954451 0.09953174 0.
  1.08848759 0.09950154 0.09951031 0.09924811 0.09982457]
 [1.09815041 0.09944341 1.09183245 0.09991078 1.09451945 1.09701374
  1.09736478 1.09543257 1.09537327 0.09960553 1.0963578  0.0993805
  1.09405436 0.09941846 1.09489957 1.09601936 0.0994689  1.09365149
  1.09613762 0.09956048 0.09932336 0.09971139 1.09673633 1.09766652
  0.         1.09652586 0.09968973 1.09475951 0.09988885]
 [0.09982561 0.09942275 1.09152917 0.09990746 0.09948327 1.09690285
  0.09975154 0.09956936 0.09956377 1.09549972 0.0996566  0.09935749
  1.09383358 0.09939686 1.09471018 0.09962469 0.09944917 1.09341576
  0.09963584 0.09954416 0.09929823 0.09970068 0.09969229 1.09757987
  1.09243472 0.         0.0996782  0.0995059  0.09988472]
 [0.09987289 0.09957924 1.0938256  0.09993255 0.09962335 1.09774248
  0.0998189  0.09968611 0.09968203 1.09671974 0.09974969 0.09953168
  1.09550529 0.09956037 1.09614424 0.09972643 0.0995985  1.09520074
  0.09973456 0.09966774 0.09948848 0.09978182 0.09977571 1.09823597
  1.09448566 0.09976124 0.         0.09963985 0.09991597]
 [1.09939969 0.09981935 1.09734909 0.09997104 1.0982212  1.09903076
  1.0991447  1.09851757 1.09849832 1.09859166 1.09881787 0.09979893
  1.09807025 0.09981125 1.09834458 1.09870802 0.09982762 1.09793949
  1.09874641 0.09985735 0.09978038 0.09990633 1.09894072 1.09924263
  1.09763248 1.09887241 0.0998993  0.         0.09996392]
 [0.09983497 0.09945373 0.09927126 0.09991243 0.09951101 0.09973355
  0.09976488 0.09959248 0.09958719 0.09961284 0.09967503 0.09939198
  0.09946951 0.09942924 0.09954492 0.09964483 0.09947874 0.09943356
  0.09965539 0.09956863 0.0993359  0.09971674 0.0997088  0.0997918
  0.09934917 0.09969003 0.09969548 0.09953243 0.        ]]
transplant
[[0.00000000e+00 4.32128757e-03 0.00000000e+00 3.19098799e-05
  0.00000000e+00 0.00000000e+00 0.00000000e+00 0.00000000e+00
  0.00000000e+00 0.00000000e+00 0.00000000e+00 4.06343775e-03
  0.00000000e+00 7.21025397e-04 0.00000000e+00 0.00000000e+00
  3.69407813e-03 0.00000000e+00 0.00000000e+00 1.66283234e-03
  1.56877379e-03 1.89302480e-03 0.00000000e+00 0.00000000e+00
  0.00000000e+00 0.00000000e+00 1.57220979e-03 0.00000000e+00
  2.16559582e-04]
 [0.00000000e+00 0.00000000e+00 0.00000000e+00 6.75398960e-04
  0.00000000e+00 0.00000000e+00 0.00000000e+00 0.00000000e+00
  0.00000000e+00 0.00000000e+00 0.00000000e+00 4.75019015e-04
  0.00000000e+00 2.55773535e-05 0.00000000e+00 0.00000000e+00
  2.06714013e-04 0.00000000e+00 0.00000000e+00 7.04656164e-05
  5.97797466e-05 2.21296062e-04 0.00000000e+00 0.00000000e+00
  0.00000000e+00 0.00000000e+00 3.47551705e-04 0.00000000e+00
  8.04728045e-06]
 [0.00000000e+00 6.79550434e-04 0.00000000e+00 2.59830936e-06
  0.00000000e+00 0.00000000e+00 0.00000000e+00 0.00000000e+00
  0.00000000e+00 0.00000000e+00 0.00000000e+00 4.88445891e-04
  0.00000000e+00 1.52521427e-03 0.00000000e+00 0.00000000e+00
  7.65814837e-04 0.00000000e+00 0.00000000e+00 1.23100269e-03
  2.67416412e-03 2.27551212e-04 0.00000000e+00 0.00000000e+00
  0.00000000e+00 0.00000000e+00 1.69559777e-04 0.00000000e+00
  3.95506410e-04]
 [1.12738132e-03 3.15274991e-03 1.24928190e-03 0.00000000e+00
  9.97558351e-04 9.56968504e-04 9.09404084e-04 4.44586081e-04
  2.32520714e-04 1.28881807e-03 1.00090739e-03 4.15365300e-03
  2.88034221e-03 4.70535549e-04 1.09938596e-03 1.58355041e-03
  2.65631167e-03 8.12583729e-04 3.75957374e-04 1.13171232e-03
  1.04194860e-03 1.93505317e-03 3.48312557e-04 8.65484397e-04
  8.52904041e-04 1.47918012e-03 1.65342033e-03 1.78848653e-04
  1.42963379e-04]
 [0.00000000e+00 1.24056840e-03 0.00000000e+00 6.16630439e-06
  0.00000000e+00 0.00000000e+00 0.00000000e+00 0.00000000e+00
  0.00000000e+00 0.00000000e+00 0.00000000e+00 9.73182962e-04
  0.00000000e+00 5.18891098e-04 0.00000000e+00 0.00000000e+00
  1.34068217e-03 0.00000000e+00 0.00000000e+00 1.04376609e-03
  1.06294581e-03 4.53374603e-04 0.00000000e+00 0.00000000e+00
  0.00000000e+00 0.00000000e+00 3.56036180e-04 0.00000000e+00
  1.49738856e-04]
 [0.00000000e+00 1.89192435e-03 0.00000000e+00 7.93980364e-06
  0.00000000e+00 0.00000000e+00 0.00000000e+00 0.00000000e+00
  0.00000000e+00 0.00000000e+00 0.00000000e+00 1.40520818e-03
  0.00000000e+00 1.97674833e-03 0.00000000e+00 0.00000000e+00
  2.09751115e-03 0.00000000e+00 0.00000000e+00 3.06588133e-03
  3.75137260e-03 6.54641240e-04 0.00000000e+00 0.00000000e+00
  0.00000000e+00 0.00000000e+00 4.97077252e-04 0.00000000e+00
  5.41603707e-04]
 [0.00000000e+00 2.43235512e-03 0.00000000e+00 8.95012237e-05
  0.00000000e+00 0.00000000e+00 0.00000000e+00 0.00000000e+00
  0.00000000e+00 2.60605099e-03 0.00000000e+00 3.84126556e-03
  0.00000000e+00 2.98287834e-04 0.00000000e+00 0.00000000e+00
  1.99037498e-03 0.00000000e+00 0.00000000e+00 7.67180447e-04
  6.78740979e-04 1.78952193e-03 0.00000000e+00 0.00000000e+00
  0.00000000e+00 0.00000000e+00 2.44412985e-03 0.00000000e+00
  9.22453251e-05]
 [3.17989851e-04 8.47915457e-04 2.85225274e-04 3.11999964e-05
  7.59016562e-04 6.64583960e-04 2.25729157e-04 0.00000000e+00
  1.94632581e-04 9.08465583e-04 7.15694523e-04 1.33905959e-03
  1.48426232e-03 1.03982705e-04 8.17560264e-04 1.04858758e-03
  6.93841823e-04 1.83609308e-04 3.03827031e-04 2.67437988e-04
  2.36608118e-04 6.23824740e-04 7.80182740e-05 5.82526700e-04
  1.91842712e-04 9.63288330e-04 8.52020110e-04 1.51563537e-04
  3.21565862e-05]
 [6.49323455e-05 1.60710431e-04 0.00000000e+00 4.12213152e-04
  1.06997068e-03 0.00000000e+00 3.84240148e-05 1.49572013e-03
  0.00000000e+00 0.00000000e+00 4.67687173e-04 2.89916179e-04
  0.00000000e+00 1.56105089e-05 0.00000000e+00 3.26753119e-04
  1.26162816e-04 0.00000000e+00 1.26483270e-03 4.30069568e-05
  3.64850988e-05 1.35062612e-04 1.18669950e-05 0.00000000e+00
  0.00000000e+00 2.60097155e-04 2.12119639e-04 2.07558321e-03
  4.91145980e-06]
 [2.60451970e-05 1.13627860e-04 0.00000000e+00 4.04858103e-07
  1.22640119e-05 0.00000000e+00 8.29048688e-05 5.10367376e-06
  2.57442330e-06 0.00000000e+00 1.33424327e-05 7.95619451e-05
  0.00000000e+00 6.18895403e-04 0.00000000e+00 2.37647538e-05
  1.29812471e-04 0.00000000e+00 4.31584314e-06 2.27931810e-04
  5.37166483e-04 3.70653481e-05 2.82876311e-04 0.00000000e+00
  0.00000000e+00 2.28517892e-05 2.72254881e-05 1.95637057e-06
  9.99377327e-05]
 [0.00000000e+00 2.06003366e-05 0.00000000e+00 8.32238984e-05
  0.00000000e+00 0.00000000e+00 0.00000000e+00 0.00000000e+00
  0.00000000e+00 6.70554203e-05 0.00000000e+00 3.73231302e-05
  0.00000000e+00 1.98848155e-06 0.00000000e+00 0.00000000e+00
  1.61520430e-05 0.00000000e+00 0.00000000e+00 5.48757591e-06
  4.65051500e-06 1.73876445e-05 0.00000000e+00 0.00000000e+00
  0.00000000e+00 0.00000000e+00 2.74507247e-05 0.00000000e+00
  6.25885758e-07]
 [0.00000000e+00 1.53955467e-03 0.00000000e+00 7.96742770e-05
  0.00000000e+00 0.00000000e+00 0.00000000e+00 0.00000000e+00
  0.00000000e+00 2.16812803e-03 0.00000000e+00 0.00000000e+00
  0.00000000e+00 1.81216570e-04 0.00000000e+00 0.00000000e+00
  1.25135202e-03 0.00000000e+00 0.00000000e+00 4.72140003e-04
  4.14466193e-04 1.15562595e-03 0.00000000e+00 0.00000000e+00
  0.00000000e+00 0.00000000e+00 1.60820579e-03 0.00000000e+00
  5.62267138e-05]
 [1.05660897e-04 4.25921344e-04 3.75854821e-04 2.19342366e-06
  6.35947411e-05 6.55926653e-05 2.30659050e-04 2.71802619e-05
  1.38985134e-05 8.72283927e-05 6.69451401e-05 3.37702228e-04
  0.00000000e+00 1.53362387e-04 7.12934299e-05 1.13298443e-04
  4.58111516e-04 2.50530310e-04 2.29845700e-05 3.15670360e-04
  3.17466099e-04 1.57324593e-04 1.09706563e-04 6.09925482e-05
  2.65884282e-04 1.07534812e-04 1.24405576e-04 1.06093466e-05
  4.45673998e-05]
 [4.07933695e-04 1.62170522e-03 0.00000000e+00 9.02536563e-06
  2.58770522e-04 0.00000000e+00 6.98013965e-04 1.11343858e-04
  5.71360928e-05 0.00000000e+00 2.70233348e-04 1.31498771e-03
  0.00000000e+00 0.00000000e+00 0.00000000e+00 4.51987817e-04
  1.72732332e-03 0.00000000e+00 9.41562189e-05 9.32941817e-04
  9.16436834e-04 6.12610426e-04 3.13780434e-04 0.00000000e+00
  0.00000000e+00 4.27756886e-04 4.91734530e-04 4.36656972e-05
  1.27839601e-04]
 [0.00000000e+00 1.27665540e-03 0.00000000e+00 1.09687415e-05
  0.00000000e+00 0.00000000e+00 0.00000000e+00 0.00000000e+00
  0.00000000e+00 3.97596694e-04 0.00000000e+00 1.34329003e-03
  0.00000000e+00 2.04865138e-04 0.00000000e+00 0.00000000e+00
  1.08600249e-03 0.00000000e+00 0.00000000e+00 4.79615224e-04
  4.48573663e-04 6.25795570e-04 0.00000000e+00 0.00000000e+00
  0.00000000e+00 0.00000000e+00 5.24572966e-04 0.00000000e+00
  6.17878472e-05]
 [3.76290422e-04 1.53676219e-03 1.78588932e-03 7.38870107e-06
  2.16220549e-04 2.25336750e-04 9.46932702e-04 9.18952923e-05
  4.68536439e-05 2.99103995e-04 2.29157154e-04 1.19324424e-03
  7.55525928e-04 7.47468210e-04 2.42969939e-04 0.00000000e+00
  1.66849663e-03 1.19935648e-03 7.77098391e-05 1.46770991e-03
  1.51425553e-03 5.55894065e-04 5.28742420e-04 2.10416453e-04
  1.27727414e-03 3.72793685e-04 4.33699135e-04 3.57309168e-05
  2.14096098e-04]
 [5.48411021e-04 1.46233026e-03 0.00000000e+00 5.38080754e-05
  1.30901363e-03 0.00000000e+00 3.89296567e-04 6.19635910e-04
  3.35666853e-04 0.00000000e+00 1.23429966e-03 2.30936627e-03
  0.00000000e+00 1.79330445e-04 0.00000000e+00 1.80841302e-03
  0.00000000e+00 0.00000000e+00 5.23985567e-04 4.61228368e-04
  4.08058619e-04 1.07585938e-03 1.34551720e-04 0.00000000e+00
  0.00000000e+00 1.66130439e-03 1.46940922e-03 2.61389203e-04
  5.54578274e-05]
 [0.00000000e+00 8.56498560e-04 0.00000000e+00 6.25999393e-05
  0.00000000e+00 0.00000000e+00 0.00000000e+00 0.00000000e+00
  0.00000000e+00 0.00000000e+00 0.00000000e+00 1.40543025e-03
  0.00000000e+00 9.73278227e-05 0.00000000e+00 0.00000000e+00
  6.92020856e-04 0.00000000e+00 0.00000000e+00 2.56332647e-04
  2.23549845e-04 6.54744696e-04 0.00000000e+00 0.00000000e+00
  0.00000000e+00 0.00000000e+00 9.27423865e-04 0.00000000e+00
  3.02811626e-05]
 [0.00000000e+00 2.69836348e-03 0.00000000e+00 2.31837435e-05
  0.00000000e+00 0.00000000e+00 0.00000000e+00 0.00000000e+00
  0.00000000e+00 0.00000000e+00 0.00000000e+00 2.83920372e-03
  0.00000000e+00 4.33006906e-04 0.00000000e+00 0.00000000e+00
  2.29539581e-03 0.00000000e+00 0.00000000e+00 1.01372399e-03
  9.48113945e-04 1.32269358e-03 0.00000000e+00 0.00000000e+00
  0.00000000e+00 0.00000000e+00 1.10874754e-03 0.00000000e+00
  1.30595985e-04]
 [0.00000000e+00 2.50645575e-03 0.00000000e+00 4.03353485e-05
  0.00000000e+00 0.00000000e+00 0.00000000e+00 0.00000000e+00
  0.00000000e+00 0.00000000e+00 0.00000000e+00 3.73988749e-03
  0.00000000e+00 3.50508280e-04 0.00000000e+00 0.00000000e+00
  2.09257046e-03 0.00000000e+00 0.00000000e+00 0.00000000e+00
  7.83592642e-04 1.74229315e-03 0.00000000e+00 0.00000000e+00
  0.00000000e+00 0.00000000e+00 1.67805460e-03 0.00000000e+00
  1.07158771e-04]
 [3.23466844e-04 8.91548677e-04 3.34812701e-04 1.43473216e-05
  3.78338732e-04 3.54729075e-04 2.50678477e-04 1.71038788e-04
  9.01745912e-05 4.79576791e-04 3.73806314e-04 1.33028152e-03
  1.03980506e-03 1.24676126e-04 4.14632594e-04 5.79658893e-04
  7.44329289e-04 2.16993744e-04 1.44636318e-04 3.06898397e-04
  0.00000000e+00 6.19735320e-04 9.27301894e-05 3.18193462e-04
  2.27398770e-04 5.39021091e-04 5.96885608e-04 6.95517413e-05
  3.81164761e-05]
 [0.00000000e+00 5.28838147e-04 0.00000000e+00 1.31277613e-04
  0.00000000e+00 0.00000000e+00 0.00000000e+00 0.00000000e+00
  0.00000000e+00 0.00000000e+00 0.00000000e+00 9.11484192e-04
  0.00000000e+00 5.51260753e-05 0.00000000e+00 0.00000000e+00
  4.20761347e-04 0.00000000e+00 0.00000000e+00 1.48918811e-04
  1.27874307e-04 0.00000000e+00 0.00000000e+00 0.00000000e+00
  0.00000000e+00 0.00000000e+00 6.32949114e-04 0.00000000e+00
  1.72604417e-05]
 [1.59620467e-04 6.93056601e-04 0.00000000e+00 2.51806325e-06
  7.61265075e-05 0.00000000e+00 4.98809144e-04 3.17186134e-05
  1.60094291e-05 0.00000000e+00 8.26927640e-05 4.88862390e-04
  0.00000000e+00 2.82463575e-03 0.00000000e+00 1.46920513e-04
  7.88695760e-04 0.00000000e+00 2.68223571e-05 1.34914223e-03
  3.09931925e-03 2.27745245e-04 0.00000000e+00 0.00000000e+00
  0.00000000e+00 1.41183655e-04 1.67951724e-04 1.21683982e-05
  5.71109354e-04]
 [3.76436659e-04 9.58341330e-04 0.00000000e+00 1.99752773e-04
  3.73524816e-03 0.00000000e+00 2.38098773e-04 2.03166454e-03
  1.21099463e-03 0.00000000e+00 2.09714758e-03 1.64240569e-03
  0.00000000e+00 1.00839943e-04 0.00000000e+00 1.65085636e-03
  7.63806341e-04 0.00000000e+00 1.71804583e-03 2.71680020e-04
  2.33672636e-04 7.65143920e-04 7.63385060e-05 0.00000000e+00
  0.00000000e+00 1.34056379e-03 1.13350945e-03 9.78272452e-04
  3.15527890e-05]
 [0.00000000e+00 2.63966068e-04 0.00000000e+00 2.57904301e-04
  0.00000000e+00 0.00000000e+00 0.00000000e+00 0.00000000e+00
  0.00000000e+00 7.80323235e-04 0.00000000e+00 4.69943615e-04
  0.00000000e+00 2.61476744e-05 0.00000000e+00 0.00000000e+00
  2.08010965e-04 0.00000000e+00 0.00000000e+00 7.16523427e-05
  6.09879060e-05 2.18931597e-04 0.00000000e+00 0.00000000e+00
  0.00000000e+00 0.00000000e+00 3.38498999e-04 0.00000000e+00
  8.21594932e-06]
 [1.09818363e-04 2.73767741e-04 0.00000000e+00 2.67480886e-04
  1.60200210e-03 0.00000000e+00 6.60832939e-05 2.04562494e-03
  1.54575315e-03 0.00000000e+00 7.35451141e-04 4.87393713e-04
  0.00000000e+00 2.71185983e-05 0.00000000e+00 5.32386435e-04
  2.15734895e-04 0.00000000e+00 1.72985124e-03 7.43129605e-05
  6.32525285e-05 2.27061035e-04 2.05948878e-05 0.00000000e+00
  0.00000000e+00 0.00000000e+00 3.51068252e-04 1.32883406e-03
  8.52102658e-06]
 [5.10116210e-04 1.39613627e-03 0.00000000e+00 2.64176184e-05
  6.87099646e-04 0.00000000e+00 3.87861034e-04 3.13109966e-04
  1.65831833e-04 0.00000000e+00 6.73180419e-04 2.10823336e-03
  0.00000000e+00 1.89510555e-04 0.00000000e+00 1.03282468e-03
  1.16053023e-03 0.00000000e+00 2.64776622e-04 4.71315211e-04
  4.25444973e-04 9.82158034e-04 1.41245169e-04 0.00000000e+00
  0.00000000e+00 9.58163455e-04 0.00000000e+00 1.28109084e-04
  5.80958148e-05]
 [0.00000000e+00 3.57352538e-04 0.00000000e+00 1.43834849e-06
  0.00000000e+00 0.00000000e+00 0.00000000e+00 0.00000000e+00
  0.00000000e+00 0.00000000e+00 0.00000000e+00 2.61608205e-04
  0.00000000e+00 5.07622097e-04 0.00000000e+00 0.00000000e+00
  3.99012980e-04 0.00000000e+00 0.00000000e+00 6.07067350e-04
  9.34588934e-04 1.21874838e-04 0.00000000e+00 0.00000000e+00
  0.00000000e+00 0.00000000e+00 9.17646807e-05 0.00000000e+00
  1.36203706e-04]
 [1.50377887e-04 3.77680377e-04 1.07664005e-04 1.87545045e-04
  1.96239389e-03 6.65419625e-04 9.20880572e-05 1.73424174e-03
  1.11022540e-03 1.04122065e-03 9.39327520e-04 6.63326932e-04
  8.19424874e-04 3.82000325e-05 1.61254225e-03 7.02577232e-04
  2.98806542e-04 6.86998538e-05 1.46653483e-03 1.04076364e-04
  8.89022511e-05 3.09022657e-04 2.89793094e-05 4.45894396e-04
  7.15067707e-05 5.65473473e-04 4.70379435e-04 9.24938264e-04
  0.00000000e+00]]
HELLO WORLD!
  Iteration		V-variation
HELLO WORLD!
    1		  0.6761395305198521
HELLO WORLD!
    2		  0.3698350966386247
HELLO WORLD!
    3		  0.09045385722734856
HELLO WORLD!
    4		  0.03619782898932866
HELLO WORLD!
    5		  0.015059311772247952
HELLO WORLD!
    6		  0.00629098900241476
Iterating stopped, epsilon-optimal policy found.
0.1
(0, 0, 0, 1, 0, 0, 0, 1, 1, 1, 0, 0, 1, 1, 0, 1, 1, 0, 0, 0, 1, 0, 1, 1, 0, 1, 1, 0, 1)
(0.7377499373991343, 0.7729311042306869, 0.7405656268643683, 0.6077438634345391, 0.7409731859783071, 0.7383281363284275, 0.7019705642214761, 0.6070477439132672, 0.606826543701553, 0.6066133117407798, 0.7065981619608861, 0.7389465616377341, 0.606683788983629, 0.606908803782428, 0.7056816479529561, 0.6071637558125142, 0.6070960506156414, 0.740356810714551, 0.7395693618869705, 0.7745362606349107, 0.6069149270291317, 0.7755419310480165, 0.6069266489626929, 0.6072778358265877, 0.704353444890956, 0.6069372718983376, 0.6069500071388785, 0.7418822618736259, 0.6071218961359963)
wait
[[0.         0.09987204 0.09978533 ... 0.09958814 0.09961173 0.09987708]
 [0.0998653  0.         1.09445186 ... 0.09903232 0.09908776 0.09971118]
 [0.09987411 0.09971901 0.         ... 0.09909558 0.0991474  0.09973007]
 ...
 [1.09955059 1.0989969  1.09831717 ... 0.         0.0997233  0.0999124 ]
 [0.09989179 1.09734321 1.09554292 ... 0.09922262 0.         0.09976798]
 [0.0999201  0.09982166 0.09970082 ... 0.099426   0.09945888 0.        ]]
transplant
[[0.00000000e+00 5.51606190e-05 1.23058079e-04 ... 2.36095979e-04
  1.46586035e-03 1.02239747e-04]
 [5.27552463e-05 0.00000000e+00 0.00000000e+00 ... 5.54716164e-04
  3.44409268e-03 2.40216035e-04]
 [1.04707255e-04 2.56050306e-04 0.00000000e+00 ... 1.07809340e-03
  3.62832184e-03 1.05721628e-04]
 ...
 [0.00000000e+00 0.00000000e+00 0.00000000e+00 ... 0.00000000e+00
  1.31225527e-04 4.16126864e-04]
 [1.76407388e-05 0.00000000e+00 0.00000000e+00 ... 1.87559808e-04
  0.00000000e+00 4.23262589e-04]
 [1.99538838e-04 4.79621556e-04 9.92720365e-04 ... 1.90460707e-03
  9.08976897e-04 0.00000000e+00]]
HELLO WORLD!
  Iteration		V-variation
HELLO WORLD!
    1		  0.7163797230067939
HELLO WORLD!
    2		  0.36226615439398263
HELLO WORLD!
    3		  0.0848538260796185
HELLO WORLD!
    4		  0.030943153400143975
HELLO WORLD!
    5		  0.014241108347708642
HELLO WORLD!
    6		  0.00668372175815346
Iterating stopped, epsilon-optimal policy found.
0.1
(1, 0, 1, 0, 1, 0, 0, 1, 0, 0, 1, 0, 0, 0, 1, 1, 1, 0, 0, 1, 1, 1, 1, 1, 0, 1, 1, 0, 0, 0, 1, 0, 1, 1, 0, 1, 1, 0, 1, 1, 1, 0, 0, 1, 0, 0, 1)
(0.5965832929617139, 0.6606308422604739, 0.5972962412369618, 0.6623816018923471, 0.5965491582096543, 0.8127662208798604, 0.6825888314952837, 0.5964756185202164, 0.7902391746888533, 0.7930153908307453, 0.597210673120986, 0.7936010539618217, 0.7908337992394369, 0.6604314609510435, 0.5965393427701858, 0.5962526305374332, 0.596059114984984, 0.6646199689626517, 0.6833955889001635, 0.5961025445821011, 0.5963424784571275, 0.5962742192028427, 0.5961330097563471, 0.5963016345853839, 0.6637508650654727, 0.5965544405003665, 0.5964842983914906, 0.7930515582177369, 0.7921820967024903, 0.8131243573839738, 0.5964088926863188, 0.8143370703733344, 0.5963189168443509, 0.5965877456691088, 0.6624507964008868, 0.5963522181786353, 0.5963051989474386, 0.7946819875191456, 0.5964800356847876, 0.5962197506614464, 0.5971508811666593, 0.7918277104314478, 0.6855129577654243, 0.5965193468573093, 0.8157510223355158, 0.683230107481432, 0.596579404137856)
